     REPRO -                                                            00010000
       INDATASET (PPSP.EMPLCHG.CUM) -                                   00020000
       OUTFILE (OUTDD) -                                                00030000
       REPLACE ;                                                        00040000
