* SIM      TYPE=APPL,ARCB1DSN=PPSP.ARCHIVE.BKUP,MAXCARDS=9999,          00000110
  DUMP     TYPE=APPL,ARCB1DSN=PPSP.ARCHIVE.BKUP,MAXCARDS=9999,          00000210
           MAXFILE=4095,ENQERR=NO,PRINT=ABR,SELTERR=NO,SAMEDATE=YES,    00000310
           ICFCORE=1048576                                              00000410
  SELECT   CATDSN=PPSP.UDB2EDB.DAILY.**                                 00032101
  SELECT   CATDSN=PPSP.EDB.**                                           00033001
  SELECT   CATDSN=PPSP.XEDB.**                                          00033101
  SELECT   CATDSN=PPSP.UDB2EDB.DAILYOF.**                               00033201
  SELECT   CATDSN=PPSP.UDB2XEDB.DAILYIN.**                              00033301
  SELECT   CATDSN=PPSP.UDB2XEDB.DAILYOF.**                              00033401
  SELECT   CATDSN=PPSP.UDB2COA.DAILY.**                                 00033501
  SELECT   CATDSN=PPSP.COA.**                                           00033601
  SELECT   CATDSN=PPSP.FOAPAL.INDET                                     00033701
  SELECT   CATDSN=PPSP.IFIS.TABLES                                      00033801
  SELECT   CATDSN=PPSP.UDB2CTL.DAILY.**                                 00033901
  SELECT   CATDSN=PPSP.CTL.**                                           00034001
  SELECT   CATDSN=PPSP.UDB2PCD.DAILY.**                                 00034101
  SELECT   CATDSN=PPSP.PCD.**                                           00034201
  SELECT   CATDSN=PPSP.UDB2IID.DAILY.**                                 00034301
  SELECT   CATDSN=PPSP.IID.**                                           00034401
  SELECT   CATDSN=PPSP.UDB2PAN.DAILY.**                                 00034501
  SELECT   CATDSN=PPSP.PAN.**                                           00034601
  SELECT   CATDSN=PPSP.UDB2THF.DAILY.**                                 00034701
  SELECT   CATDSN=PPSP.THF.**                                           00034801
  SELECT   CATDSN=PPSP.UDB2ABY.DAILY.**                                 00034901
  SELECT   CATDSN=PPSP.ABY.**                                           00035001
  SELECT   CATDSN=PPSP.PAY.PPPSRS.**                                    00036001
  SELECT   CATDSN=PPSP.PXT.**                                           00037001
  SELECT   CATDSN=PPSP.FISP.**                                          00038001
  SELECT   CATDSN=PPSP.EDBCHG.**                                        00039001
  SELECT   CATDSN=PPSP.ECFRAW.**                                        00040001
  SELECT   CATDSN=PPSP.PPUNLQU1                                         00041001
  SELECT   CATDSN=PPSP.PPUNLQUE.**                                      00042001
  SELECT   CATDSN=PPSP.INTRANS.**                                       00042101
  SELECT   CATDSN=PPSP.HOSP.**                                          00042201
  SELECT   CATDSN=PPSP.DOSFILE                                          00042301
  SELECT   CATDSN=PPSP.DOSEXT                                           00042401
  SELECT   CATDSN=PPSP.PPP0201                                          00042501
  SELECT   CATDSN=PPSP.PPP020CR                                         00042601
  SELECT   CATDSN=PPSP.PPP130.EDBCHG                                    00042701
  SELECT   CATDSN=PPSP.LVBIRPT                                          00042801
  SELECT   CATDSN=PPSP.PPP1361                                          00042901
  SELECT   CATDSN=PPSP.PPP1362                                          00043001
  SELECT   CATDSN=PPSP.PPP1363                                          00043101
  SELECT   CATDSN=PPSP.PPBIVRP1                                         00043201
  SELECT   CATDSN=PPSP.PPBIVRP2                                         00043301
  SELECT   CATDSN=PPSP.ERROR                                            00043401
  SELECT   CATDSN=PPSP.NRATAX                                           00043501
  SELECT   CATDSN=PPSP.NRASTA                                           00043601
  SELECT   CATDSN=PPSP.EXECINC                                          00043701
  SELECT   CATDSN=PPSP.EDCFILE                                          00043801
  SELECT   CATDSN=PPSP.SISRPT                                           00043901
  SELECT   CATDSN=PPSP.PPP130CR                                         00044001
  SELECT   CATDSN=PPSP.PPP1301                                          00044101
  SELECT   CATDSN=PPSP.PPP1303                                          00044201
  SELECT   CATDSN=PPSP.PPP1309                                          00044301
  SELECT   CATDSN=PPSP.PPP1306                                          00044401
  SELECT   CATDSN=PPSP.PPELGRPT                                         00044501
  SELECT   CATDSN=PPSP.PPESTRP3                                         00044601
  SELECT   CATDSN=PPSP.PPP1001                                          00044701
  SELECT   CATDSN=PPSP.PPP100CR                                         00044801
  SELECT   CATDSN=PPSP.PPP7421                                          00044901
  SELECT   CATDSN=PPSP.PPP742CR                                         00045001
  SELECT   CATDSN=PPSP.COSTDBA                                          00045101
  SELECT   CATDSN=PPSP.COSTDBA.CUM                                      00045201
  SELECT   CATDSN=PPSP.PPP7001                                          00045301
  SELECT   CATDSN=PPSP.PPP700CR                                         00045401
  SELECT   CATDSN=PPSP.NEWACT                                           00045501
  SELECT   CATDSN=PPSP.NEWACT.CUM                                       00045601
  SELECT   CATDSN=PPSP.IVRDH1                                           00045701
  SELECT   CATDSN=PPSP.IVRDH1.PREV                                      00045801
  SELECT   CATDSN=PPSP.IVRD1                                            00045901
  SELECT   CATDSN=PPSP.IVREH1                                           00046001
  SELECT   CATDSN=PPSP.IVREH1.PREV                                      00046101
  SELECT   CATDSN=PPSP.IVRE1                                            00046201
  SELECT   CATDSN=PPSP.IVRGH1                                           00046301
  SELECT   CATDSN=PPSP.IVRGH1.PREV                                      00046401
  SELECT   CATDSN=PPSP.IVRG1                                            00046501
  SELECT   CATDSN=PPSP.IVRAH1                                           00046601
  SELECT   CATDSN=PPSP.IVRAH1.PREV                                      00046701
  SELECT   CATDSN=PPSP.IVRA1                                            00046801
  SELECT   CATDSN=PPSP.PPIIVR1                                          00046901
  SELECT   CATDSN=PPSP.IVR.**                                           00047001
  SELECT   CATDSN=PPSP.IVRNH.**                                         00047101
  SELECT   CATDSN=PPSP.PPP7101                                          00047201
  SELECT   CATDSN=PPSP.PPP710CR                                         00047301
  SELECT   CATDSN=PPSP.DWXE.**                                          00047401
  SELECT   CATDSN=PPSP.MISC.DATA                                        00047501
  SELECT   CATDSN=PPSP.TABLES.CNTL                                      00047601
  SELECT   CATDSN=PPSP.FISP.**                                          00047701
  SELECT   CATDSN=PPSP.PPP7701                                          00047801
  SELECT   CATDSN=PPSP.PPP7702                                          00047901
  SELECT   CATDSN=PPSP.UNFHISNW.PREV                                    00048001
  SELECT   CATDSN=PPSP.UNFHISNW                                         00048101
  SELECT   CATDSN=PPSP.UNITS770                                         00048201
  SELECT   CATDSN=PPSP.RUSHAP.**                                        00048301
  SELECT   CATDSN=PPSP.DB2.SQL                                          00048401
  SELECT   CATDSN=PPSP.DATA.PPSPAN                                      00048501
  SELECT   CATDSN=PPSP.PANDIR1                                          00048601
  SELECT   CATDSN=PPSP.PANDIR2                                          00048701
  SELECT   CATDSN=PPSP.REJECT3                                          00048801
  SELECT   CATDSN=PPSP.CHNGLIST.**                                      00048901
  SELECT   CATDSN=PPSP.TKASSIGN.EXT                                     00049001
  SELECT   CATDSN=PPSP.TKAGENT.EXT                                      00049101
  SELECT   CATDSN=PPSP.TKCODE.EXT                                       00049201
  SELECT   CATDSN=PPSP.TKUPDATE.**                                      00049301
  SELECT   CATDSN=PPSP.TMKPV                                            00049401
  SELECT   CATDSN=PPSP.PAYCAL.ORIG                                      00049501
  SELECT   CATDSN=PPSP.PAYCAL                                           00049601
  SELECT   CATDSN=PPSP.PAYCALCR                                         00049701
  SELECT   CATDSN=PPSP.CTL.PPPFCT                                       00049801
  SELECT   CATDSN=SYSP.USERID.FLATFILE                                  00049901
