   SET CONDCODE 16                                                      00010000
   SET CONDCODE 1 IF $PMM EQ 1                                          00020001
   SET CONDCODE 1 IF $PMM EQ 2                                          00030001
   SET CONDCODE 1 IF $PMM EQ 3                                          00040001
   SET CONDCODE 1 IF $PMM EQ 4                                          00050001
   SET CONDCODE 1 IF $PMM EQ 5                                          00060001
   SET CONDCODE 1 IF $PMM EQ 6                                          00070001
   SET CONDCODE 1 IF $PMM EQ 7                                          00080001
   SET CONDCODE 1 IF $PMM EQ 8                                          00090001
   SET CONDCODE 1 IF $PMM EQ 9                                          00100001
   SET CONDCODE 1 IF $PMM EQ 10                                         00110001
   SET CONDCODE 1 IF $PMM EQ 11                                         00120001
   SET CONDCODE 2 IF $PMM EQ 12                                         00130001
