PAF000000051
PAF000000068
PAF000000073
PAF000000094
PAF000000121
PAF000000154
PAF000000162
PAF000000189
PAF000000195
PAF000000227
PAF000000234
PAF000000331
PAF000000821
PAF000000843
PAF000000845
PAF000000847
PAF000000972
PAF000002315
PAF000002360
PAF000002374
PAF000002401
PAF000002556
PAF000002687
PAF000002969
PAF000003790
PAF000004294
PAF000004843
PAF000005187
PAF000005613
PAF000005617
PAF000005708
PAF000005721
PAF000006789
PAF000006866
PAF000006884
PAF000006896
PAF000007142
PAF000007146
PAF000007713
PAF000007715
PAF000007740
PAF000007757
PAF000007765
PAF000007801
PAF000007802
PAF000007929
PAF000008748
PAF000008772
PAF000008779
PAF000008785
PAF000008827
PAF000009009
PAF000009028
PAF000009075
PAF000009172
PAF000009352
PAF000009828
PAF000010535
PAF000011171
PAF000011193
PAF000011297
PAF000011363
PAF000011677
PAF000011695
PAF000011698
PAF000011712
PAF000011752
PAF000011769
PAF000011783
PAF000011784
PAF000011786
PAF000011844
PAF000011845
PAF000011899
PAF000011900
PAF000011907
PAF000012374
PAF000012386
PAF000012388
PAF000012405
PAF000012414
PAF000012415
PAF000012418
PAF000012420
PAF000012437
PAF000012565
PAF000012574
PAF000012575
PAF000012611
PAF000012625
PAF000012629
PAF000012768
PAF000013044
PAF000013046
PAF000013395
PAF000013462
PAF000013501
PAF000013505
PAF000013520
PAF000013587
PAF000013660
PAF000014306
PAF000014348
PAF000014351
PAF000014441
PAF000015350
PAF000015526
PAF000015553
PAF000017244
PAF000017285
PAF000018004
PAF000018499
PAF000018662
PAF000018675
PAF000018688
PAF000018785
PAF000018814
PAF000019106
PAF000019154
PAF000019813
PAF000019829
PAF000019892
PAF000019919
PAF000019924
PAF000019927
PAF000019948
PAF000019966
PAF000019972
PAF000019973
PAF000020010
PAF000020011
PAF000020027
PAF000020030
PAF000020043
PAF000020066
PAF000020086
PAF000020093
PAF000020098
PAF000020107
PAF000020121
PAF000020148
PAF000020176
PAF000020178
PAF000020185
PAF000020195
PAF000020204
PAF000020208
PAF000020225
PAF000020231
PAF000020427
PAF000020429
PAF000020884
PAF000020941
PAF000022122
PAF000022181
PAF000022188
PAF000022244
PAF000023252
PAF000024260
PAF000024305
PAF000025044
PAF000025060
PAF000025061
PAF000025064
PAF000025069
PAF000025071
PAF000025072
PAF000025084
PAF000025090
PAF000025092
PAF000025093
PAF000025139
PAF000025155
PAF000025769
PAF000025928
PAF000026015
PAF000026169
PAF000026190
PAF000026191
PAF000026210
PAF000026245
PAF000026246
PAF000026248
PAF000026263
PAF000026265
PAF000026269
PAF000026301
PAF000026749
PAF000026944
PAF000027026
PAF000027146
PAF000027558
PAF000027600
PAF000027601
PAF000027644
PAF000027649
PAF000027676
PAF000027700
PAF000027927
PAF000029050
PAF000029138
PAF000029139
PAF000029144
PAF000029198
PAF000029201
PAF000029206
PAF000029247
PAF000029269
PAF000029275
PAF000029277
PAF000029279
PAF000029290
PAF000029315
PAF000029327
PAF000029335
PAF000029439
PAF000029451
PAF000029482
PAF000029521
PAF000029567
PAF000029598
PAF000029614
PAF000029656
PAF000029705
PAF000029718
PAF000029725
PAF000029726
PAF000029730
PAF000029731
PAF000029757
PAF000029769
PAF000029782
PAF000030791
PAF000033453
PAF000033463
PAF000035551
PAF000035577
PAF000036162
PAF000036350
PAF000036414
PAF000036423
PAF000036459
PAF000036538
PAF000036567
PAF000036664
PAF000036750
PAF000036840
PAF000037020
PAF000037142
PAF000037262
PAF000037367
PAF000037480
PAF000038493
PAF000038540
PAF000038610
PAF000038619
PAF000038693
PAF000038796
PAF000039108
PAF000040511
PAF000040518
PAF000040774
PAF000040880
PAF000041008
PAF000041012
PAF000041023
PAF000041028
PAF000041029
PAF000042231
PAF000042995
PAF000043054
PAF000043079
PAF000043232
PAF000043239
PAF000043284
PAF000043370
PAF000043404
PAF000043490
PAF000043538
PAF000043573
PAF000043575
PAF000044199
PAF000044273
PAF000044281
PAF000046082
PAF000046780
PAF000047246
PAF000047340
PAF000047386
PAF000047450
PAF000047692
PAF000047875
PAF000047902
PAF000047914
PAF000047941
PAF000047945
PAF000047946
PAF000047961
PAF000047982
PAF000047984
PAF000047989
PAF000047990
PAF000047991
PAF000048003
PAF000048026
PAF000048036
PAF000049578
PAF000049828
PAF000049871
PAF000050234
PAF000050294
PAF000050295
PAF000050530
PAF000050603
PAF000050619
PAF000050693
PAF000050694
PAF000050740
PAF000050754
PAF000051069
PAF000051134
PAF000051200
PAF000051246
PAF000051681
PAF000054819
PAF000054865
PAF000054867
PAF000054895
PAF000055222
PAF000055270
PAF000056066
PAF000056726
PAF000056747
PAF000056796
PAF000056874
PAF000056892
PAF000056943
PAF000056962
PAF000056984
PAF000056985
PAF000056988
PAF000056995
PAF000057003
PAF000057015
PAF000057144
PAF000057517
PAF000057525
PAF000057559
PAF000057711
PAF000057742
PAF000058607
PAF000058626
PAF000058653
PAF000058751
PAF000058770
PAF000058775
PAF000059221
PAF000059313
PAF000059360
PAF000059818
PAF000060578
PAF000061279
PAF000061834
PAF000061835
PAF000061994
PAF000062074
PAF000062213
PAF000062327
PAF000062362
PAF000062376
PAF000062414
PAF000062460
PAF000062499
PAF000063217
PAF000063245
PAF000063291
PAF000063347
PAF000063350
PAF000063407
PAF000063497
PAF000063757
PAF000063758
PAF000063787
PAF000064064
PAF000064134
PAF000064300
PAF000064439
PAF000064523
PAF000064611
PAF000064627
PAF000065689
PAF000065954
PAF000065961
PAF000066871
PAF000066882
PAF000067405
PAF000067407
PAF000067414
PAF000067434
PAF000070461
PAF000071216
PAF000071249
PAF000072401
PAF000072645
PAF000073554
PAF000074014
PAF000074167
PAF000074213
PAF000074446
PAF000075045
PAF000075191
PAF000075557
PAF000077518
PAF000079498
PAF000079518
PAF000079643
PAF000079644
PAF000079805
PAF000079924
PAF000079977
PAF000080530
PAF000080820
PAF000081365
PAF000083664
PAF000083708
PAF000084483
PAF000084910
PAF000085143
PAF000085284
PAF000085293
PAF000085663
PAF000085867
PAF000085877
PAF000086145
PAF000086268
PAF000086685
PAF000086751
PAF000087352
PAF000087368
PAF000087720
PAF000087747
PAF000088917
PAF000089151
PAF000089157
PAF000089467
PAF000090921
PAF000090969
PAF000090981
PAF000091009
PAF000092118
PAF000092441
PAF000092683
PAF000092696
PAF000092705
PAF000092990
PAF000093222
PAF000093453
PAF000093800
PAF000094475
PAF000094482
PAF000094490
PAF000095375
PAF000095389
PAF000095483
PAF000095508
PAF000097302
PAF000098129
PAF000098579
PAF000098653
PAF000098685
PAF000098705
PAF000098788
PAF000098793
PAF000098798
PAF000098802
PAF000098892
PAF000099944
PAF000099945
PAF000101236
PAF000101350
PAF000101419
PAF000101440
PAF000101617
PAF000101644
PAF000101654
PAF000102136
PAF000102240
PAF000103302
PAF000103484
PAF000103947
PAF000104302
PAF000104352
PAF000105510
PAF000105520
PAF000105613
PAF000105924
PAF000105980
PAF000106382
PAF000106390
PAF000106686
PAF000106760
PAF000107427
PAF000107449
PAF000107463
PAF000107795
PAF000107909
PAF000107980
PAF000109690
PAF000109961
PAF000110005
PAF000110021
PAF000110040
PAF000110112
PAF000110127
PAF000110321
PAF000110631
PAF000110693
PAF000110784
PAF000112018
PAF000112783
PAF000112808
PAF000112824
PAF000112920
PAF000113947
PAF000114111
PAF000114918
PAF000114937
PAF000114950
PAF000115215
PAF000115416
PAF000115444
PAF000115450
PAF000115752
PAF000115759
PAF000115831
PAF000115894
PAF000115896
PAF000115898
PAF000115900
PAF000115915
PAF000115967
PAF000115986
PAF000115989
PAF000116375
PAF000117334
PAF000117340
PAF000117344
PAF000117346
PAF000117352
PAF000117364
PAF000117366
PAF000117381
PAF000117391
PAF000117392
PAF000117422
PAF000117423
PAF000117433
PAF000117435
PAF000117460
PAF000117470
PAF000117500
PAF000117513
PAF000117590
PAF000117623
PAF000117745
PAF000117746
PAF000118048
PAF000118440
PAF000118446
PAF000118469
PAF000119034
PAF000119290
PAF000119299
PAF000119457
PAF000119469
PAF000119474
PAF000119479
PAF000119518
PAF000119540
PAF000119541
PAF000119550
PAF000119626
PAF000119652
PAF000119683
PAF000119698
PAF000119713
PAF000119723
PAF000119735
PAF000119753
PAF000119806
PAF000120007
PAF000120059
PAF000122040
PAF000122258
PAF000122277
PAF000122342
PAF000122374
PAF000122377
PAF000122381
PAF000122382
PAF000122383
PAF000122397
PAF000122420
PAF000122431
PAF000122653
PAF000122654
PAF000123226
PAF000123342
PAF000123401
PAF000123428
PAF000123435
PAF000123436
PAF000123500
PAF000123629
PAF000123635
PAF000123798
PAF000123850
PAF000124130
PAF000124525
PAF000124528
PAF000124529
PAF000124532
PAF000124533
PAF000124778
PAF000124903
PAF000125528
PAF000125550
PAF000125555
PAF000125582
PAF000125665
PAF000125725
PAF000127136
PAF000127138
PAF000127160
PAF000127172
PAF000127198
PAF000127207
PAF000127891
PAF000127913
PAF000127941
PAF000127943
PAF000127957
PAF000128006
PAF000128015
PAF000128028
PAF000128104
PAF000128175
PAF000130545
PAF000130566
PAF000132407
PAF000132418
PAF000132441
PAF000132569
PAF000132588
PAF000132631
PAF000132643
PAF000132827
PAF000132835
PAF000132836
PAF000132839
PAF000132885
PAF000132899
PAF000132910
PAF000132919
PAF000133012
PAF000133016
PAF000133031
PAF000133068
PAF000133268
PAF000133387
PAF000133452
PAF000133465
PAF000133476
PAF000133486
PAF000133514
PAF000133519
PAF000133683
PAF000133732
PAF000133882
PAF000133901
PAF000134024
PAF000134785
PAF000135232
PAF000135289
PAF000135292
PAF000135294
PAF000135332
PAF000135388
PAF000135417
PAF000135495
PAF000135708
PAF000135721
PAF000136136
PAF000136552
PAF000136771
PAF000136946
PAF000136950
PAF000137011
PAF000137025
PAF000137252
PAF000137330
PAF000137401
PAF000137409
PAF000137626
PAF000137629
PAF000137664
PAF000137975
PAF000138727
PAF000139209
PAF000139219
PAF000139226
PAF000139299
PAF000139300
PAF000139308
PAF000139335
PAF000139336
PAF000139341
PAF000139354
PAF000139370
PAF000139586
PAF000140004
PAF000140038
PAF000140189
PAF000140273
PAF000140308
PAF000141029
PAF000141416
PAF000141425
PAF000141533
PAF000141570
PAF000141575
PAF000141614
PAF000142602
PAF000142631
PAF000142692
PAF000142978
PAF000142989
PAF000143031
PAF000144200
PAF000144665
PAF000144921
PAF000144953
PAF000145221
PAF000145237
PAF000145257
PAF000145269
PAF000145303
PAF000145840
PAF000145861
PAF000145862
PAF000146039
PAF000146446
PAF000147143
PAF000147291
PAF000147329
PAF000147767
PAF000147910
PAF000147984
PAF000147991
PAF000148000
PAF000148585
PAF000148604
PAF000148630
PAF000149403
PAF000149411
PAF000149415
PAF000149474
PAF000149798
PAF000149801
PAF000149813
PAF000149821
PAF000149822
PAF000149921
PAF000150084
PAF000150116
PAF000151119
PAF000151553
PAF000152249
PAF000152475
PAF000152655
PAF000152690
PAF000152704
PAF000152744
PAF000152888
PAF000152912
PAF000152960
PAF000155453
PAF000155741
PAF000155747
PAF000155767
PAF000156010
PAF000156011
PAF000156043
PAF000157495
PAF000157519
PAF000157558
PAF000157685
PAF000157707
PAF000157736
PAF000157874
PAF000157938
PAF000157959
PAF000158002
PAF000158031
PAF000158046
PAF000160588
PAF000160625
PAF000161140
PAF000161375
PAF000161433
PAF000161463
PAF000161937
PAF000161965
PAF000161976
PAF000161977
PAF000161980
PAF000162024
PAF000162158
PAF000162161
PAF000162175
PAF000162400
PAF000162410
PAF000163975
PAF000163986
PAF000164641
PAF000164680
PAF000164703
PAF000164716
PAF000165269
PAF000165310
PAF000165338
PAF000166112
PAF000166114
PAF000166368
PAF000166994
PAF000167374
PAF000167417
PAF000167545
PAF000167554
PAF000167565
PAF000167635
PAF000167664
PAF000167713
PAF000168180
PAF000168184
PAF000168187
PAF000168191
PAF000168271
PAF000168287
PAF000168652
PAF000168679
PAF000168776
PAF000168878
PAF000169315
PAF000169915
PAF000170241
PAF000170394
PAF000170400
PAF000171260
PAF000171377
PAF000171382
PAF000171477
PAF000171694
PAF000172919
PAF000173119
PAF000173290
PAF000173537
PAF000173539
PAF000173612
PAF000173694
PAF000173698
PAF000173892
PAF000173924
PAF000173931
PAF000174333
PAF000174341
PAF000174344
PAF000174497
PAF000176574
PAF000176698
PAF000176725
PAF000176727
PAF000176819
PAF000176898
PAF000176910
PAF000176917
PAF000176918
PAF000176920
PAF000176934
PAF000176950
PAF000176968
PAF000176985
PAF000176990
PAF000177318
PAF000177411
PAF000177426
PAF000177428
PAF000177527
PAF000177550
PAF000178038
PAF000178974
PAF000178981
PAF000178986
PAF000178992
PAF000178993
PAF000178995
PAF000179740
PAF000180045
PAF000180576
PAF000180585
PAF000181139
PAF000181183
PAF000181219
PAF000181334
PAF000181405
PAF000181408
PAF000182122
PAF000182352
PAF000182504
PAF000182759
PAF000182830
PAF000182939
PAF000182949
PAF000183383
PAF000183907
PAF000183914
PAF000184067
PAF000184131
PAF000184132
PAF000184764
PAF000184871
PAF000184964
PAF000184980
PAF000184984
PAF000184992
PAF000184993
PAF000185017
PAF000185242
PAF000185562
PAF000185764
PAF000185776
PAF000186237
PAF000186369
PAF000186590
PAF000186858
PAF000186868
PAF000187521
PAF000188000
PAF000188547
PAF000188695
PAF000188924
PAF000189929
PAF000189940
PAF000189968
PAF000189998
PAF000189999
PAF000190052
PAF000190179
PAF000192361
PAF000193497
PAF000193513
PAF000193533
PAF000193588
PAF000193608
PAF000193702
PAF000193714
PAF000193717
PAF000193718
PAF000193739
PAF000193774
PAF000193793
PAF000193797
PAF000193820
PAF000193824
PAF000193841
PAF000193854
PAF000193908
PAF000193928
PAF000194417
PAF000194427
PAF000194468
PAF000194470
PAF000194513
PAF000194578
PAF000194695
PAF000194780
PAF000194873
PAF000194950
PAF000195145
PAF000195160
PAF000195165
PAF000195174
PAF000196390
PAF000196415
PAF000196421
PAF000196437
PAF000196456
PAF000196481
PAF000196497
PAF000196509
PAF000196517
PAF000196540
PAF000196541
PAF000196548
PAF000196549
PAF000196550
PAF000196553
PAF000196743
PAF000196746
PAF000196766
PAF000196769
PAF000196770
PAF000197147
PAF000197212
PAF000197230
PAF000197249
PAF000197253
PAF000197376
PAF000197982
PAF000198014
PAF000198023
PAF000198024
PAF000198297
PAF000198566
PAF000199112
PAF000199543
PAF000200017
PAF000200039
PAF000200450
PAF000200460
PAF000200470
PAF000200675
PAF000201188
PAF000203010
PAF000203120
PAF000203147
PAF000203149
PAF000203150
PAF000203166
PAF000203169
PAF000203187
PAF000203189
PAF000203202
PAF000203210
PAF000203211
PAF000203215
PAF000203217
PAF000203221
PAF000203335
PAF000203423
PAF000203446
PAF000203571
PAF000203879
PAF000203883
PAF000203967
PAF000204163
PAF000204196
PAF000204334
PAF000204573
PAF000205055
PAF000206053
PAF000206057
PAF000206598
PAF000206608
PAF000206670
PAF000206677
PAF000206810
PAF000206865
PAF000207086
PAF000207166
PAF000207430
PAF000207675
PAF000207990
PAF000208031
PAF000208118
PAF000208180
PAF000208232
PAF000209051
PAF000209158
PAF000209166
PAF000209181
PAF000209192
PAF000209199
PAF000209247
PAF000209259
PAF000209261
PAF000209367
PAF000209496
PAF000209525
PAF000209968
PAF000209981
PAF000211408
PAF000211466
PAF000211611
PAF000212913
PAF000212947
PAF000212978
PAF000213059
PAF000213064
PAF000213530
PAF000214320
PAF000214339
PAF000215048
PAF000215140
PAF000215275
PAF000215316
PAF000215428
PAF000216173
PAF000216526
PAF000216576
PAF000216990
PAF000217250
PAF000217399
PAF000217504
PAF000217999
PAF000218136
PAF000218646
PAF000218670
PAF000218702
PAF000218731
PAF000218734
PAF000218735
PAF000218749
PAF000218846
PAF000219530
PAF000220089
PAF000220979
PAF000221091
PAF000221096
PAF000221166
PAF000221177
PAF000221184
PAF000221223
PAF000221225
PAF000221238
PAF000221245
PAF000221268
PAF000221332
PAF000221334
PAF000221356
PAF000221362
PAF000221850
PAF000224101
PAF000224115
PAF000225275
PAF000225430
PAF000225435
PAF000225463
PAF000226374
PAF000226387
PAF000226424
PAF000227330
PAF000227338
PAF000227342
PAF000228006
PAF000231732
PAF000231797
PAF000231808
PAF000231818
PAF000231837
PAF000231866
PAF000231893
PAF000232551
PAF000232554
PAF000232562
PAF000232577
PAF000232676
PAF000232968
PAF000233106
PAF000233220
PAF000233378
PAF000233893
PAF000234395
PAF000234634
PAF000234808
PAF000234863
PAF000235033
PAF000235317
PAF000235319
PAF000235683
PAF000236178
PAF000236180
PAF000236182
PAF000236186
PAF000236875
PAF000237937
PAF000238776
PAF000238779
PAF000238808
PAF000238838
PAF000238855
PAF000238869
PAF000238928
PAF000238934
PAF000238944
PAF000238955
PAF000238975
PAF000239005
PAF000239225
PAF000239285
PAF000239299
PAF000239300
PAF000239302
PAF000239311
PAF000239313
PAF000239368
PAF000239534
PAF000239580
PAF000239594
PAF000239648
PAF000239680
PAF000239686
PAF000239718
PAF000239742
PAF000239754
PAF000239757
PAF000239764
PAF000239827
PAF000239835
PAF000240516
PAF000240517
PAF000241470
PAF000241482
PAF000242382
PAF000242408
PAF000242422
PAF000242434
PAF000242511
PAF000242528
PAF000242535
PAF000242547
PAF000243013
PAF000243216
PAF000243219
PAF000243225
PAF000243436
PAF000243440
PAF000243455
PAF000243466
PAF000243477
PAF000243779
PAF000243783
PAF000243786
PAF000243874
PAF000243923
PAF000243940
PAF000244014
PAF000244018
PAF000244047
PAF000244066
PAF000244077
PAF000244082
PAF000244109
PAF000245395
PAF000245413
PAF000245458
PAF000246545
PAF000247914
PAF000249082
PAF000249434
PAF000249628
PAF000249671
PAF000249695
PAF000249705
PAF000249730
PAF000249748
PAF000249753
PAF000249810
PAF000249828
PAF000250116
PAF000250944
PAF000250979
PAF000250996
PAF000251020
PAF000251023
PAF000251066
PAF000251068
PAF000251141
PAF000252164
PAF000252165
PAF000252205
PAF000252211
PAF000253149
PAF000253395
PAF000254666
PAF000254923
PAF000254936
PAF000254948
PAF000256049
PAF000256301
PAF000256417
PAF000256448
PAF000256653
PAF000256875
PAF000256998
PAF000257013
PAF000257034
PAF000258775
PAF000259228
PAF000259245
PAF000259249
PAF000259324
PAF000259334
PAF000259335
PAF000259339
PAF000259340
PAF000259344
PAF000259381
PAF000259390
PAF000259451
PAF000259475
PAF000259481
PAF000259493
PAF000259494
PAF000259499
PAF000259522
PAF000259532
PAF000259541
PAF000259545
PAF000259547
PAF000259551
PAF000259553
PAF000262068
PAF000262133
PAF000262215
PAF000262223
PAF000262261
PAF000262265
PAF000263865
PAF000263981
PAF000263987
PAF000264002
PAF000264730
PAF000264746
PAF000264832
PAF000264843
PAF000264855
PAF000264873
PAF000264928
PAF000266921
PAF000266989
PAF000267438
PAF000267517
PAF000267589
PAF000267757
PAF000268053
PAF000268209
PAF000268385
PAF000268396
PAF000268500
PAF000268756
PAF000270838
PAF000270911
PAF000270980
PAF000271042
PAF000271081
PAF000271490
PAF000271842
PAF000271881
PAF000272029
PAF000272250
PAF000272989
PAF000272996
PAF000273079
PAF000273170
PAF000274070
PAF000274250
PAF000274269
PAF000276296
PAF000276336
PAF000276442
PAF000276516
PAF000276528
PAF000276530
PAF000276638
PAF000276658
PAF000277116
PAF000277252
PAF000277280
PAF000277306
PAF000277708
PAF000277824
PAF000277880
PAF000277884
PAF000277910
PAF000277928
PAF000277953
PAF000277974
PAF000278229
PAF000278390
PAF000278620
PAF000278988
PAF000278993
PAF000282232
PAF000282285
PAF000282300
PAF000282356
PAF000282364
PAF000282454
PAF000282474
PAF000282567
PAF000282574
PAF000282586
PAF000282669
PAF000282837
PAF000282844
PAF000282846
PAF000282859
PAF000282895
PAF000282898
PAF000282915
PAF000282962
PAF000283015
PAF000283024
PAF000283030
PAF000283074
PAF000283084
PAF000283085
PAF000283102
PAF000283942
PAF000283943
PAF000283945
PAF000283952
PAF000284018
PAF000284041
PAF000284049
PAF000284064
PAF000284065
PAF000284074
PAF000284080
PAF000284099
PAF000284115
PAF000284125
PAF000284148
PAF000284160
PAF000284170
PAF000284181
PAF000284200
PAF000284202
PAF000284253
PAF000284351
PAF000284356
PAF000284418
PAF000284446
PAF000284521
PAF000284573
PAF000284576
PAF000284595
PAF000285322
PAF000286150
PAF000286255
PAF000286405
PAF000286542
PAF000286562
PAF000286567
PAF000286568
PAF000286589
PAF000286604
PAF000286639
PAF000286644
PAF000286661
PAF000286672
PAF000286684
PAF000286700
PAF000286710
PAF000286779
PAF000286780
PAF000286796
PAF000286822
PAF000286841
PAF000288226
PAF000288472
PAF000288547
PAF000288552
PAF000288566
PAF000288654
PAF000288656
PAF000288668
PAF000288701
PAF000288734
PAF000288736
PAF000288801
PAF000288808
PAF000288813
PAF000288828
PAF000288878
PAF000288999
PAF000289003
PAF000289004
PAF000289005
PAF000289012
PAF000290531
PAF000291015
PAF000291100
PAF000291144
PAF000292506
PAF000292534
PAF000292571
PAF000292726
PAF000293702
PAF000293804
PAF000293916
PAF000294101
PAF000294327
PAF000294354
PAF000294835
PAF000295488
PAF000295629
PAF000295636
PAF000295639
PAF000295642
PAF000295655
PAF000296562
PAF000297337
PAF000297361
PAF000297457
PAF000297466
PAF000297487
PAF000297500
PAF000297625
PAF000297739
PAF000297816
PAF000297818
PAF000297821
PAF000299973
PAF000300712
PAF000300864
PAF000300922
PAF000300923
PAF000300974
PAF000301018
PAF000301036
PAF000301053
PAF000301063
PAF000301070
PAF000301078
PAF000301083
PAF000301088
PAF000301109
PAF000301204
PAF000301227
PAF000301394
PAF000302781
PAF000303389
PAF000303439
PAF000303479
PAF000303526
PAF000303607
PAF000303620
PAF000303626
PAF000303637
PAF000303689
PAF000303736
PAF000303747
PAF000303761
PAF000303801
PAF000303815
PAF000303820
PAF000303822
PAF000304089
PAF000304094
PAF000304160
PAF000304380
PAF000304870
PAF000304895
PAF000304905
PAF000304916
PAF000304955
PAF000306563
PAF000306565
PAF000306568
PAF000306719
PAF000306725
PAF000308885
PAF000309264
PAF000309296
PAF000309565
PAF000309590
PAF000309604
PAF000309734
PAF000309744
PAF000309748
PAF000309780
PAF000309809
PAF000309812
PAF000309848
PAF000309999
PAF000312485
PAF000313343
PAF000313440
PAF000313686
PAF000314917
PAF000315724
PAF000315742
PAF000315748
PAF000315855
PAF000315887
PAF000315935
PAF000316492
PAF000317042
PAF000317415
PAF000317661
PAF000317664
PAF000317744
PAF000318010
PAF000318016
PAF000319818
PAF000322440
PAF000322577
PAF000322754
PAF000322819
PAF000322831
PAF000322846
PAF000322851
PAF000322861
PAF000322903
PAF000322904
PAF000322936
PAF000322944
PAF000322961
PAF000322978
PAF000322985
PAF000322987
PAF000322988
PAF000322992
PAF000322995
PAF000323019
PAF000323062
PAF000323117
PAF000323141
PAF000323184
PAF000323197
PAF000323205
PAF000323224
PAF000323276
PAF000323277
PAF000323282
PAF000323550
PAF000323655
PAF000323742
PAF000323770
PAF000323865
PAF000323872
PAF000323873
PAF000323894
PAF000324232
PAF000325738
PAF000326045
PAF000327243
PAF000327258
PAF000327306
PAF000327336
PAF000327339
PAF000327589
PAF000327787
PAF000328181
PAF000329266
PAF000329996
PAF000330010
PAF000330016
PAF000330017
PAF000330028
PAF000330034
PAF000333020
PAF000333026
PAF000333028
PAF000333192
PAF000333345
PAF000333375
PAF000333446
PAF000333474
PAF000333777
PAF000333791
PAF000333805
PAF000333985
PAF000335591
PAF000335911
PAF000336226
PAF000337022
PAF000338524
PAF000338728
PAF000338787
PAF000339543
PAF000340275
PAF000340794
PAF000340977
PAF000342839
PAF000342861
PAF000342892
PAF000344421
PAF000344546
PAF000344574
PAF000344735
PAF000344925
PAF000345672
PAF000346123
PAF000346831
PAF000346846
PAF000346850
PAF000346853
PAF000346906
PAF000347437
PAF000347461
PAF000350816
PAF000351190
PAF000351200
PAF000351993
PAF000352414
PAF000353146
PAF000353607
PAF000353609
PAF000353614
PAF000353627
PAF000353695
PAF000355745
PAF000356097
PAF000356126
PAF000356748
PAF000357908
PAF000358016
PAF000358053
PAF000358059
PAF000358072
PAF000358080
PAF000358082
PAF000358110
PAF000358315
PAF000358327
PAF000358358
PAF000358664
PAF000358706
PAF000359143
PAF000359282
PAF000359706
PAF000360089
PAF000360848
PAF000361843
PAF000361864
PAF000362085
PAF000362092
PAF000362165
PAF000362174
PAF000362223
PAF000362418
PAF000362434
PAF000362647
PAF000364013
PAF000364037
PAF000364054
PAF000364065
PAF000364252
PAF000364551
PAF000364581
PAF000364587
PAF000364595
PAF000364598
PAF000364601
PAF000364643
PAF000364659
PAF000364676
PAF000364679
PAF000364694
PAF000364696
PAF000364699
PAF000364706
PAF000364710
PAF000364715
PAF000364719
PAF000364726
PAF000364737
PAF000364753
PAF000364770
PAF000364778
PAF000364785
PAF000364789
PAF000364792
PAF000364800
PAF000364801
PAF000364930
PAF000365451
PAF000365452
PAF000365650
PAF000365666
PAF000365993
PAF000367320
PAF000367785
PAF000367855
PAF000367900
PAF000367906
PAF000368999
PAF000369133
PAF000369159
PAF000369311
PAF000369320
PAF000369399
PAF000369451
PAF000369457
PAF000369545
PAF000369599
PAF000369730
PAF000370595
PAF000370710
PAF000370762
PAF000370889
PAF000371222
PAF000372767
PAF000373236
PAF000373261
PAF000373288
PAF000373600
PAF000373886
PAF000373998
PAF000374472
PAF000375517
PAF000376312
PAF000376722
PAF000376725
PAF000376730
PAF000376931
PAF000376980
PAF000378934
PAF000379508
PAF000380275
PAF000380293
PAF000380401
PAF000381803
PAF000381805
PAF000381808
PAF000381816
PAF000381824
PAF000381827
PAF000381862
PAF000382031
PAF000382574
PAF000382594
PAF000382977
PAF000383666
PAF000384267
PAF000385235
PAF000385720
PAF000386436
PAF000386600
PAF000387249
PAF000388074
PAF000388260
PAF000388288
PAF000389124
PAF000389144
PAF000389228
PAF000389263
PAF000389507
PAF000389547
PAF000389551
PAF000390594
PAF000390706
PAF000391516
PAF000391703
PAF000391712
PAF000391776
PAF000392306
PAF000392326
PAF000392643
PAF000393036
PAF000393045
PAF000393087
PAF000393282
PAF000393317
PAF000393494
PAF000394642
PAF000394735
PAF000394740
PAF000394759
PAF000395716
PAF000395807
PAF000396074
PAF000396647
PAF000396648
PAF000396653
PAF000397895
PAF000398397
PAF000399032
PAF000399372
PAF000399563
PAF000399877
PAF000399930
PAF000399949
PAF000399950
PAF000399977
PAF000400078
PAF000400155
PAF000400185
PAF000400495
PAF000400923
PAF000401702
PAF000401811
PAF000401898
PAF000402753
PAF000402830
PAF000402841
PAF000403176
PAF000404330
PAF000404368
PAF000404437
PAF000406330
PAF000406552
PAF000406579
PAF000406686
PAF000406688
PAF000407090
PAF000407592
PAF000407619
PAF000407621
PAF000407622
PAF000407625
PAF000407918
PAF000407939
PAF000407978
PAF000408002
PAF000408049
PAF000408053
PAF000408055
PAF000408092
PAF000408516
PAF000410023
PAF000410117
PAF000410140
PAF000410161
PAF000410286
PAF000410356
PAF000410426
PAF000410467
PAF000410506
PAF000410638
PAF000410662
PAF000410673
PAF000410678
PAF000410681
PAF000410694
PAF000410712
PAF000410720
PAF000410726
PAF000411516
PAF000412431
PAF000412465
PAF000412675
PAF000412684
PAF000412685
PAF000412691
PAF000412827
PAF000413433
PAF000413442
PAF000413563
PAF000415555
PAF000415559
PAF000415585
PAF000415599
PAF000415617
PAF000415737
PAF000415783
PAF000415804
PAF000416283
PAF000416287
PAF000416294
PAF000416491
PAF000416755
PAF000416962
PAF000417522
PAF000418853
PAF000418860
PAF000418952
PAF000419239
PAF000419469
PAF000420098
PAF000420122
PAF000420777
PAF000420865
PAF000420886
PAF000420889
PAF000420925
PAF000420974
PAF000423058
PAF000423080
PAF000423091
PAF000423253
PAF000423350
PAF000423465
PAF000423498
PAF000423534
PAF000423767
PAF000424323
PAF000424326
PAF000424339
PAF000424367
PAF000424419
PAF000424424
PAF000425038
PAF000425556
PAF000425740
PAF000425810
PAF000425848
PAF000426775
PAF000427307
PAF000427465
PAF000427773
PAF000427776
PAF000427797
PAF000427802
PAF000427876
PAF000427880
PAF000427930
PAF000427943
PAF000427948
PAF000427971
PAF000428484
PAF000428970
PAF000429103
PAF000429159
PAF000429203
PAF000429481
PAF000429833
PAF000430179
PAF000430245
PAF000430544
PAF000432033
PAF000432050
PAF000432138
PAF000432296
PAF000432321
PAF000432329
PAF000432336
PAF000432440
PAF000433025
PAF000434600
PAF000434685
PAF000435065
PAF000435128
PAF000435136
PAF000435453
PAF000436079
PAF000437300
PAF000437357
PAF000437457
PAF000437504
PAF000438006
PAF000438011
PAF000438026
PAF000438546
PAF000438828
PAF000438879
PAF000438909
PAF000438916
PAF000438937
PAF000439411
PAF000439528
PAF000440716
PAF000440732
PAF000440830
PAF000441059
PAF000441560
PAF000443399
PAF000443488
PAF000443615
PAF000443982
PAF000445216
PAF000445699
PAF000445732
PAF000445759
PAF000445812
PAF000445854
PAF000445856
PAF000445861
PAF000446291
PAF000447894
PAF000448416
PAF000449020
PAF000449359
PAF000449880
PAF000449892
PAF000450092
PAF000450093
PAF000450164
PAF000451012
PAF000451843
PAF000451861
PAF000452328
PAF000452931
PAF000453273
PAF000453430
PAF000453432
PAF000453487
PAF000453527
PAF000453537
PAF000455058
PAF000456090
PAF000456253
PAF000456670
PAF000456686
PAF000457045
PAF000459324
PAF000459355
PAF000459356
PAF000459394
PAF000459401
PAF000459450
PAF000459475
PAF000459776
PAF000459801
PAF000459815
PAF000459823
PAF000459834
PAF000459835
PAF000459916
PAF000459928
PAF000459973
PAF000460159
PAF000460207
PAF000460241
PAF000462055
PAF000462378
PAF000462383
PAF000462689
PAF000462917
PAF000463215
PAF000463581
PAF000463585
PAF000464288
PAF000464731
PAF000464875
PAF000464922
PAF000465001
PAF000465336
PAF000465416
PAF000465509
PAF000465557
PAF000465593
PAF000465604
PAF000465691
PAF000465786
PAF000465803
PAF000465825
PAF000465864
PAF000467765
PAF000468820
PAF000468900
PAF000468946
PAF000469230
PAF000469285
PAF000469563
PAF000469569
PAF000469708
PAF000469741
PAF000469801
PAF000469806
PAF000469838
PAF000469889
PAF000469904
PAF000469919
PAF000469942
PAF000469945
PAF000469954
PAF000471281
PAF000471401
PAF000471406
PAF000471557
PAF000471585
PAF000471675
PAF000473304
PAF000473419
PAF000473529
PAF000473548
PAF000473559
PAF000473606
PAF000473686
PAF000473924
PAF000474447
PAF000474524
PAF000474829
PAF000474884
PAF000476027
PAF000477922
PAF000478051
PAF000478073
PAF000478114
PAF000478126
PAF000478136
PAF000478529
PAF000478630
PAF000478754
PAF000478867
PAF000478877
PAF000478894
PAF000478905
PAF000478968
PAF000479002
PAF000479024
PAF000479149
PAF000479190
PAF000479331
PAF000479462
PAF000479465
PAF000479586
PAF000479598
PAF000479637
PAF000479645
PAF000479680
PAF000479728
PAF000479742
PAF000480005
PAF000480007
PAF000480018
PAF000480113
PAF000480303
PAF000480384
PAF000481073
PAF000481075
PAF000481102
PAF000481117
PAF000481155
PAF000481492
PAF000484089
PAF000484098
PAF000484192
PAF000484196
PAF000484197
PAF000484304
PAF000484526
PAF000484843
PAF000485633
PAF000486768
PAF000486775
PAF000486779
PAF000487064
PAF000487089
PAF000487611
PAF000487612
PAF000487620
PAF000489477
PAF000489607
PAF000489664
PAF000489733
PAF000489768
PAF000489818
PAF000489993
PAF000490164
PAF000490744
PAF000493010
PAF000493017
PAF000493030
PAF000493035
PAF000493106
PAF000493129
PAF000493165
PAF000493194
PAF000493248
PAF000493383
PAF000493634
PAF000493659
PAF000493681
PAF000493690
PAF000493766
PAF000493771
PAF000493773
PAF000493801
PAF000493804
PAF000493806
PAF000493826
PAF000493912
PAF000493923
PAF000493971
PAF000494003
PAF000495611
PAF000495617
PAF000495645
PAF000496360
PAF000496394
PAF000497476
PAF000497737
PAF000498086
PAF000498321
PAF000498730
PAF000499606
PAF000499620
PAF000499691
PAF000499707
PAF000499715
PAF000499721
PAF000499760
PAF000500990
PAF000502050
PAF000502056
PAF000502439
PAF000502550
PAF000502564
PAF000502568
PAF000502863
PAF000502887
PAF000503097
PAF000503102
PAF000503116
PAF000503120
PAF000503123
PAF000503232
PAF000503500
PAF000503559
PAF000503612
PAF000503613
PAF000503630
PAF000503635
PAF000503665
PAF000503669
PAF000503697
PAF000503699
PAF000503704
PAF000503730
PAF000503760
PAF000503770
PAF000503771
PAF000503776
PAF000503815
PAF000503834
PAF000503835
PAF000503836
PAF000503842
PAF000503942
PAF000504164
PAF000504190
PAF000504304
PAF000504399
PAF000504424
PAF000504452
PAF000504503
PAF000504902
PAF000505196
PAF000505815
PAF000506000
PAF000506021
PAF000506678
PAF000506863
PAF000506879
PAF000506903
PAF000506905
PAF000506908
PAF000507200
PAF000507863
PAF000511520
PAF000511521
PAF000511584
PAF000511612
PAF000511617
PAF000511622
PAF000511634
PAF000511635
PAF000511653
PAF000511674
PAF000511685
PAF000511767
PAF000511768
PAF000511770
PAF000511790
PAF000511832
PAF000511843
PAF000512155
PAF000512292
PAF000512299
PAF000512347
PAF000512349
PAF000512354
PAF000512364
PAF000512374
PAF000512425
PAF000512434
PAF000512802
PAF000513865
PAF000513887
PAF000514450
PAF000514985
PAF000515483
PAF000515566
PAF000515604
PAF000515612
PAF000515722
PAF000515779
PAF000516081
PAF000516222
PAF000516442
PAF000516577
PAF000516579
PAF000516719
PAF000516724
PAF000516726
PAF000516812
PAF000516993
PAF000517268
PAF000517416
PAF000517420
PAF000517435
PAF000517440
PAF000517441
PAF000517971
PAF000518588
PAF000518950
PAF000519512
PAF000519551
PAF000521644
PAF000521677
PAF000522206
PAF000522247
PAF000522356
PAF000522504
PAF000522592
PAF000523499
PAF000523518
PAF000523569
PAF000523579
PAF000523586
PAF000523592
PAF000523596
PAF000523601
PAF000523658
PAF000523659
PAF000523689
PAF000523692
PAF000523756
PAF000523768
PAF000523803
PAF000523807
PAF000523823
PAF000523828
PAF000523863
PAF000523867
PAF000523977
PAF000524015
PAF000524024
PAF000525297
PAF000525348
PAF000525550
PAF000526276
PAF000526579
PAF000526750
PAF000526836
PAF000526841
PAF000526919
PAF000526937
PAF000526943
PAF000527411
PAF000527577
PAF000527580
PAF000527644
PAF000527681
PAF000527688
PAF000527969
PAF000528882
PAF000529076
PAF000529241
PAF000529936
PAF000529938
PAF000529948
PAF000529990
PAF000530186
PAF000530206
PAF000530501
PAF000530700
PAF000531454
PAF000531550
PAF000531877
PAF000531898
PAF000531916
PAF000531934
PAF000531946
PAF000531955
PAF000531965
PAF000531984
PAF000531985
PAF000532000
PAF000532325
PAF000532813
PAF000532838
PAF000532876
PAF000532893
PAF000532897
PAF000532913
PAF000533091
PAF000535206
PAF000535215
PAF000535293
PAF000535294
PAF000535295
PAF000535750
PAF000535900
PAF000536134
PAF000536377
PAF000537223
PAF000537293
PAF000537300
PAF000537673
PAF000537674
PAF000537683
PAF000537693
PAF000537723
PAF000538091
PAF000538099
PAF000538111
PAF000538129
PAF000538337
PAF000538684
PAF000539275
PAF000539653
PAF000539703
PAF000539713
PAF000539850
PAF000540401
PAF000540411
PAF000540419
PAF000540429
PAF000540439
PAF000540454
PAF000540830
PAF000541640
PAF000541780
PAF000542112
PAF000542130
PAF000542136
PAF000542291
PAF000543396
PAF000543550
PAF000543556
PAF000543610
PAF000543829
PAF000544404
PAF000544434
PAF000545699
PAF000545708
PAF000545724
PAF000545735
PAF000545750
PAF000546144
PAF000547758
PAF000547765
PAF000547850
PAF000548684
PAF000549985
PAF000550050
PAF000550164
PAF000550512
PAF000550535
PAF000550575
PAF000553000
PAF000553355
PAF000553476
PAF000553607
PAF000553705
PAF000553922
PAF000554400
PAF000555839
PAF000556062
PAF000556465
PAF000556554
PAF000556562
PAF000556578
PAF000556601
PAF000557667
PAF000557991
PAF000558328
PAF000558369
PAF000558391
PAF000558402
PAF000558418
PAF000558536
PAF000558973
PAF000559350
PAF000559481
PAF000559503
PAF000559528
PAF000559704
PAF000559862
PAF000560642
PAF000560796
PAF000560802
PAF000560803
PAF000560826
PAF000560831
PAF000560834
PAF000560848
PAF000561437
PAF000561873
PAF000562110
PAF000562914
PAF000562979
PAF000563023
PAF000563029
PAF000563046
PAF000563054
PAF000563208
PAF000563314
PAF000563325
PAF000563371
PAF000563385
PAF000564469
PAF000564483
PAF000564495
PAF000564532
PAF000564534
PAF000564536
PAF000564539
PAF000564548
PAF000564560
PAF000564564
PAF000564603
PAF000564631
PAF000564634
PAF000564699
PAF000564708
PAF000564726
PAF000564748
PAF000564765
PAF000564776
PAF000564793
PAF000564818
PAF000564822
PAF000564842
PAF000564848
PAF000565237
PAF000565499
PAF000565743
PAF000567500
PAF000567650
PAF000567925
PAF000568054
PAF000568215
PAF000568316
PAF000568477
PAF000568515
PAF000568519
PAF000568575
PAF000568616
PAF000568622
PAF000568828
PAF000568913
PAF000569114
PAF000570168
PAF000570473
PAF000570476
PAF000570479
PAF000570584
PAF000570592
PAF000570650
PAF000570655
PAF000570787
PAF000570788
PAF000570791
PAF000572060
PAF000573122
PAF000573338
PAF000573552
PAF000574257
PAF000574453
PAF000574755
PAF000574795
PAF000575492
PAF000575567
PAF000575816
PAF000575820
PAF000576426
PAF000576615
PAF000576685
PAF000576710
PAF000576789
PAF000576813
PAF000576831
PAF000576981
PAF000577281
PAF000577440
PAF000577716
PAF000577721
PAF000577747
PAF000578505
PAF000578546
PAF000578606
PAF000578805
PAF000578819
PAF000578861
PAF000578883
PAF000578950
PAF000579356
PAF000580374
PAF000580383
PAF000581196
PAF000581212
PAF000581248
PAF000581262
PAF000581264
PAF000581460
PAF000581524
PAF000581664
PAF000581682
PAF000581686
PAF000581688
PAF000581698
PAF000581705
PAF000581708
PAF000582502
PAF000582538
PAF000582870
PAF000583163
PAF000583200
PAF000583202
PAF000583218
PAF000583224
PAF000583232
PAF000583265
PAF000583325
PAF000583376
PAF000583718
PAF000583720
PAF000584701
PAF000585823
PAF000586155
PAF000586218
PAF000586321
PAF000586370
PAF000586508
PAF000586514
PAF000586517
PAF000586565
PAF000586571
PAF000586593
PAF000586594
PAF000586621
PAF000586639
PAF000586644
PAF000586655
PAF000586656
PAF000586662
PAF000586663
PAF000586731
PAF000587447
PAF000587532
PAF000588557
PAF000588607
PAF000589128
PAF000589212
PAF000589497
PAF000589593
PAF000589836
PAF000589842
PAF000589861
PAF000591109
PAF000591130
PAF000591205
PAF000591952
PAF000592850
PAF000593028
PAF000593060
PAF000593072
PAF000593104
PAF000593363
PAF000594141
PAF000594143
PAF000594151
PAF000595075
PAF000596419
PAF000596450
PAF000596515
PAF000596653
PAF000597135
PAF000597197
PAF000597204
PAF000597206
PAF000597223
PAF000597235
PAF000597639
PAF000597643
PAF000597661
PAF000597839
PAF000597994
PAF000598057
PAF000598063
PAF000598630
PAF000598849
PAF000598855
PAF000598860
PAF000598876
PAF000599430
PAF000600330
PAF000600446
PAF000602167
PAF000602500
PAF000602530
PAF000602545
PAF000602558
PAF000602783
PAF000603015
PAF000603023
PAF000603134
PAF000603349
PAF000603412
PAF000603768
PAF000603834
PAF000603836
PAF000603846
PAF000603895
PAF000603985
PAF000604015
PAF000604312
PAF000604326
PAF000604331
PAF000604428
PAF000604899
PAF000604910
PAF000605226
PAF000605253
PAF000605269
PAF000605451
PAF000605527
PAF000605531
PAF000605797
PAF000605843
PAF000605876
PAF000605887
PAF000605905
PAF000605913
PAF000605939
PAF000606012
PAF000606030
PAF000606907
PAF000608215
PAF000609578
PAF000609859
PAF000610421
PAF000610900
PAF000611211
PAF000611521
PAF000611526
PAF000611736
PAF000611943
PAF000612027
PAF000612071
PAF000612364
PAF000612385
PAF000612401
PAF000612410
PAF000612519
PAF000612606
PAF000612694
PAF000612818
PAF000612825
PAF000612871
PAF000613370
PAF000613540
PAF000613542
PAF000613606
PAF000613617
PAF000613635
PAF000613643
PAF000613678
PAF000613694
PAF000613757
PAF000613763
PAF000613821
PAF000613826
PAF000613842
PAF000613877
PAF000613892
PAF000613903
PAF000613956
PAF000613979
PAF000615518
PAF000615880
PAF000618216
PAF000618220
PAF000618751
PAF000619183
PAF000619210
PAF000619318
PAF000619377
PAF000619421
PAF000619491
PAF000619504
PAF000619595
PAF000620590
PAF000620600
PAF000620610
PAF000620851
PAF000621005
PAF000621034
PAF000621079
PAF000621080
PAF000621138
PAF000621155
PAF000621156
PAF000621160
PAF000621170
PAF000621480
PAF000621481
PAF000621482
PAF000621537
PAF000621845
PAF000621870
PAF000621928
PAF000622032
PAF000622273
PAF000622424
PAF000622650
PAF000622651
PAF000622745
PAF000622768
PAF000622775
PAF000622779
PAF000622784
PAF000623203
PAF000624006
PAF000624012
PAF000624014
PAF000624069
PAF000624073
PAF000624124
PAF000624725
PAF000625190
PAF000625200
PAF000625206
PAF000625209
PAF000625279
PAF000625283
PAF000625311
PAF000625326
PAF000625328
PAF000625394
PAF000625430
PAF000625446
PAF000625462
PAF000625591
PAF000625796
PAF000625830
PAF000625831
PAF000625832
PAF000625849
PAF000628365
PAF000628471
PAF000628573
PAF000628680
PAF000628684
PAF000628689
PAF000629197
PAF000629951
PAF000630445
PAF000630452
PAF000630469
PAF000630474
PAF000630487
PAF000630490
PAF000630536
PAF000630582
PAF000631048
PAF000631525
PAF000631526
PAF000631641
PAF000631667
PAF000631669
PAF000631712
PAF000631727
PAF000631737
PAF000631738
PAF000631747
PAF000631748
PAF000631837
PAF000631850
PAF000631854
PAF000631908
PAF000631968
PAF000632006
PAF000632063
PAF000632100
PAF000632107
PAF000632110
PAF000634793
PAF000635151
PAF000635706
PAF000635747
PAF000635758
PAF000635777
PAF000635793
PAF000636150
PAF000636412
PAF000636414
PAF000636421
PAF000636447
PAF000636458
PAF000636512
PAF000636550
PAF000636937
PAF000637443
PAF000637717
PAF000637725
PAF000637754
PAF000637923
PAF000637934
PAF000637946
PAF000638039
PAF000638056
PAF000638067
PAF000638090
PAF000638153
PAF000638154
PAF000638175
PAF000638178
PAF000638210
PAF000638233
PAF000638240
PAF000639931
PAF000639969
PAF000640029
PAF000640077
PAF000640094
PAF000640340
PAF000640348
PAF000640522
PAF000640727
PAF000640756
PAF000640827
PAF000640874
PAF000640882
PAF000640884
PAF000641001
PAF000641538
PAF000641541
PAF000641593
PAF000641640
PAF000641658
PAF000641681
PAF000641682
PAF000641695
PAF000641727
PAF000641863
PAF000641877
PAF000642079
PAF000642094
PAF000642132
PAF000642181
PAF000642183
PAF000642696
PAF000642697
PAF000642776
PAF000642778
PAF000642895
PAF000643230
PAF000643544
PAF000644823
PAF000644844
PAF000644848
PAF000644871
PAF000644890
PAF000644906
PAF000644933
PAF000644959
PAF000644961
PAF000645007
PAF000645008
PAF000645012
PAF000645055
PAF000645343
PAF000645356
PAF000645359
PAF000647720
PAF000647830
PAF000647837
PAF000647844
PAF000647918
PAF000647968
PAF000648082
PAF000649550
PAF000649560
PAF000649596
PAF000649714
PAF000649753
PAF000649763
PAF000649777
PAF000649792
PAF000649852
PAF000649866
PAF000649867
PAF000649894
PAF000649895
PAF000649901
PAF000649916
PAF000649917
PAF000649921
PAF000649932
PAF000649942
PAF000649943
PAF000649946
PAF000649955
PAF000649961
PAF000649967
PAF000649968
PAF000649978
PAF000650064
PAF000650116
PAF000650634
PAF000651590
PAF000651598
PAF000651617
PAF000651813
PAF000652053
PAF000652164
PAF000654144
PAF000654350
PAF000655203
PAF000655526
PAF000655721
PAF000655804
PAF000656691
PAF000657037
PAF000657823
PAF000657851
PAF000657867
PAF000657902
PAF000658150
PAF000658311
PAF000658459
PAF000658460
PAF000658475
PAF000658506
PAF000658919
PAF000659261
PAF000659700
PAF000659942
PAF000660066
PAF000660102
PAF000660585
PAF000660590
PAF000660803
PAF000661013
PAF000661133
PAF000661149
PAF000661164
PAF000661215
PAF000662200
PAF000662221
PAF000662408
PAF000662423
PAF000662593
PAF000663102
PAF000663128
PAF000663416
PAF000663425
PAF000663821
PAF000663825
PAF000663840
PAF000663847
PAF000664099
PAF000665261
PAF000665571
PAF000665666
PAF000665859
PAF000665870
PAF000666185
PAF000666211
PAF000666428
PAF000666475
PAF000667285
PAF000668305
PAF000668353
PAF000668419
PAF000668612
PAF000669204
PAF000669610
PAF000669934
PAF000672003
PAF000672057
PAF000672093
PAF000672188
PAF000672189
PAF000672202
PAF000672211
PAF000672676
PAF000673353
PAF000673386
PAF000673470
PAF000673868
PAF000674018
PAF000675203
PAF000675241
PAF000675343
PAF000675348
PAF000675385
PAF000675406
PAF000675411
PAF000675419
PAF000675425
PAF000675585
PAF000675708
PAF000675735
PAF000676725
PAF000677303
PAF000677306
PAF000677348
PAF000677351
PAF000677394
PAF000677400
PAF000678003
PAF000678007
PAF000678008
PAF000678012
PAF000678015
PAF000678040
PAF000678240
PAF000678307
PAF000678312
PAF000678314
PAF000678351
PAF000678429
PAF000678431
PAF000678461
PAF000678640
PAF000678660
PAF000678680
PAF000678706
PAF000678861
PAF000678868
PAF000678990
PAF000679012
PAF000679257
PAF000679608
PAF000679665
PAF000680096
PAF000680105
PAF000680119
PAF000680212
PAF000680215
PAF000680454
PAF000680511
PAF000680581
PAF000680625
PAF000680750
PAF000680770
PAF000680778
PAF000680782
PAF000680794
PAF000680809
PAF000680821
PAF000680842
PAF000680851
PAF000680872
PAF000680883
PAF000680889
PAF000680890
PAF000680924
PAF000681858
PAF000681866
PAF000681904
PAF000682050
PAF000682128
PAF000682291
PAF000682332
PAF000682828
PAF000682830
PAF000683604
PAF000683640
PAF000684465
PAF000684472
PAF000684891
PAF000684894
PAF000684990
PAF000685072
PAF000685143
PAF000685485
PAF000685847
PAF000685891
PAF000685900
PAF000686109
PAF000686146
PAF000686159
PAF000686173
PAF000686183
PAF000686184
PAF000686194
PAF000687211
PAF000688185
PAF000688425
PAF000688446
PAF000688452
PAF000688613
PAF000689074
PAF000690137
PAF000690191
PAF000690341
PAF000690395
PAF000690396
PAF000690481
PAF000690775
PAF000691934
PAF000692521
PAF000692525
PAF000692537
PAF000692562
PAF000692577
PAF000692676
PAF000692800
PAF000692853
PAF000693061
PAF000693500
PAF000693549
PAF000693676
PAF000693701
PAF000693703
PAF000693707
PAF000693710
PAF000693773
PAF000694077
PAF000694108
PAF000694116
PAF000694124
PAF000694803
PAF000695600
PAF000695684
PAF000695735
PAF000695767
PAF000695870
PAF000696872
PAF000697259
PAF000697475
PAF000697508
PAF000697522
PAF000697559
PAF000697760
PAF000697767
PAF000698055
PAF000698076
PAF000698103
PAF000698104
PAF000698249
PAF000698511
PAF000698544
PAF000698602
PAF000698722
PAF000699601
PAF000699662
PAF000699880
PAF000700031
PAF000700081
PAF000700089
PAF000700219
PAF000700243
PAF000700265
PAF000700295
PAF000700300
PAF000700335
PAF000700386
PAF000700883
PAF000701203
PAF000701243
PAF000701245
PAF000701513
PAF000701834
PAF000701842
PAF000701892
PAF000701918
PAF000701920
PAF000701950
PAF000701958
PAF000701977
PAF000701995
PAF000702006
PAF000702012
PAF000702016
PAF000702020
PAF000702852
PAF000702888
PAF000702997
PAF000703028
PAF000703043
PAF000703046
PAF000703065
PAF000703089
PAF000703092
PAF000703095
PAF000703660
PAF000705345
PAF000705737
PAF000706410
PAF000706866
PAF000706938
PAF000706961
PAF000706985
PAF000707026
PAF000707343
PAF000707545
PAF000707558
PAF000707846
PAF000707851
PAF000707864
PAF000707946
PAF000708027
PAF000708271
PAF000708359
PAF000708477
PAF000708615
PAF000708617
PAF000708625
PAF000708640
PAF000708644
PAF000708662
PAF000708663
PAF000708684
PAF000708686
PAF000708714
PAF000708726
PAF000708735
PAF000708742
PAF000708751
PAF000708773
PAF000708797
PAF000708808
PAF000708809
PAF000708812
PAF000710115
PAF000710285
PAF000710309
PAF000710393
PAF000710618
PAF000710632
PAF000710633
PAF000710682
PAF000710694
PAF000710702
PAF000710706
PAF000710715
PAF000710720
PAF000710905
PAF000710921
PAF000710943
PAF000710990
PAF000711008
PAF000711030
PAF000711042
PAF000712488
PAF000712520
PAF000712539
PAF000712601
PAF000712700
PAF000712790
PAF000712936
PAF000712942
PAF000712944
PAF000712950
PAF000712988
PAF000712989
PAF000712991
PAF000713030
PAF000713037
PAF000713071
PAF000713079
PAF000713623
PAF000714858
PAF000714892
PAF000714920
PAF000715027
PAF000715279
PAF000717108
PAF000717166
PAF000717224
PAF000717284
PAF000717374
PAF000717384
PAF000717421
PAF000717494
PAF000718100
PAF000718471
PAF000718524
PAF000718539
PAF000718562
PAF000719495
PAF000720614
PAF000720632
PAF000720687
PAF000721341
PAF000721346
PAF000721419
PAF000721443
PAF000721450
PAF000721574
PAF000721575
PAF000721578
PAF000721607
PAF000721895
PAF000722140
PAF000722161
PAF000722390
PAF000722464
PAF000722830
PAF000722833
PAF000722928
PAF000722931
PAF000722978
PAF000722989
PAF000723107
PAF000723171
PAF000723249
PAF000723256
PAF000723284
PAF000723310
PAF000724795
PAF000724902
PAF000725108
PAF000725177
PAF000725611
PAF000725627
PAF000725732
PAF000725744
PAF000725759
PAF000725821
PAF000725840
PAF000725872
PAF000725882
PAF000725911
PAF000725945
PAF000725951
PAF000725960
PAF000725961
PAF000725968
PAF000725983
PAF000725994
PAF000726002
PAF000726025
PAF000726026
PAF000726041
PAF000726046
PAF000726050
PAF000726064
PAF000726068
PAF000726069
PAF000726079
PAF000726087
PAF000726112
PAF000726116
PAF000726117
PAF000726780
PAF000726782
PAF000726787
PAF000727610
PAF000727693
PAF000727703
PAF000727704
PAF000727973
PAF000728096
PAF000728146
PAF000728161
PAF000728200
PAF000728211
PAF000728271
PAF000728289
PAF000728325
PAF000728330
PAF000728354
PAF000728366
PAF000728386
PAF000728396
PAF000728405
PAF000728410
PAF000728412
PAF000728418
PAF000728515
PAF000728542
PAF000729130
PAF000729323
PAF000729923
PAF000730215
PAF000730820
PAF000731009
PAF000731116
PAF000731142
PAF000731165
PAF000731192
PAF000731197
PAF000731265
PAF000731268
PAF000731269
PAF000731275
PAF000731280
PAF000731285
PAF000731295
PAF000731300
PAF000731302
PAF000731321
PAF000731329
PAF000731343
PAF000731376
PAF000731379
PAF000731397
PAF000731402
PAF000731413
PAF000731416
PAF000731434
PAF000731442
PAF000731443
PAF000731570
PAF000731618
PAF000731730
PAF000731787
PAF000731792
PAF000731804
PAF000731933
PAF000732516
PAF000732517
PAF000733678
PAF000733704
PAF000733766
PAF000733826
PAF000733827
PAF000734378
PAF000734668
PAF000734670
PAF000734674
PAF000734675
PAF000734865
PAF000734873
PAF000734959
PAF000735468
PAF000736581
PAF000738096
PAF000738098
PAF000738230
PAF000738235
PAF000739073
PAF000739228
PAF000739340
PAF000740356
PAF000740659
PAF000740673
PAF000741020
PAF000741703
PAF000742832
PAF000742846
PAF000746736
PAF000746761
PAF000746767
PAF000746769
PAF000746903
PAF000746904
PAF000746915
PAF000746923
PAF000747121
PAF000747138
PAF000747280
PAF000747445
PAF000747629
PAF000747772
PAF000748816
PAF000748850
PAF000749550
PAF000750160
PAF000750246
PAF000750783
PAF000750802
PAF000750815
PAF000752171
PAF000752407
PAF000752430
PAF000752478
PAF000752647
PAF000752731
PAF000754410
PAF000754413
PAF000754447
PAF000754456
PAF000754461
PAF000754474
PAF000754605
PAF000754665
PAF000754745
PAF000754751
PAF000754765
PAF000754790
PAF000754812
PAF000754820
PAF000754823
PAF000754829
PAF000754863
PAF000754875
PAF000754898
PAF000754951
PAF000755305
PAF000755368
PAF000755559
PAF000755573
PAF000755610
PAF000756220
PAF000756227
PAF000756286
PAF000756443
PAF000756530
PAF000757824
PAF000757836
PAF000757838
PAF000757850
PAF000758513
PAF000758608
PAF000758675
PAF000760158
PAF000760212
PAF000760363
PAF000760377
PAF000760460
PAF000760735
PAF000760888
PAF000761903
PAF000762009
PAF000762330
PAF000763698
PAF000763705
PAF000763747
PAF000763787
PAF000763812
PAF000764219
PAF000764374
PAF000764396
PAF000764800
PAF000765200
PAF000765362
PAF000765795
PAF000765816
PAF000765823
PAF000765834
PAF000767210
PAF000767285
PAF000767362
PAF000767432
PAF000767435
PAF000767459
PAF000767463
PAF000767535
PAF000767650
PAF000767686
PAF000767690
PAF000768238
PAF000769159
PAF000769175
PAF000769235
PAF000769241
PAF000769242
PAF000769337
PAF000769532
PAF000769565
PAF000769680
PAF000769682
PAF000769698
PAF000769737
PAF000771020
PAF000771028
PAF000771029
PAF000771039
PAF000771041
PAF000771044
PAF000772190
PAF000772429
PAF000773481
PAF000774947
PAF000774989
PAF000774992
PAF000775247
PAF000775293
PAF000775296
PAF000776605
PAF000776618
PAF000776620
PAF000776621
PAF000776648
PAF000776652
PAF000776666
PAF000776713
PAF000776833
PAF000776859
PAF000776902
PAF000776905
PAF000778719
PAF000780324
PAF000780476
PAF000780779
PAF000780849
PAF000783262
PAF000783368
PAF000783902
PAF000783974
PAF000783977
PAF000783995
PAF000783996
PAF000783999
PAF000784002
PAF000784007
PAF000784009
PAF000784169
PAF000784183
PAF000784512
PAF000784520
PAF000784521
PAF000785356
PAF000785444
PAF000785459
PAF000785514
PAF000785521
PAF000785543
PAF000785559
PAF000785591
PAF000785604
PAF000785605
PAF000785618
PAF000786022
PAF000786557
PAF000786812
PAF000787837
PAF000787850
PAF000788845
PAF000788865
PAF000788868
PAF000788900
PAF000788922
PAF000789049
PAF000789051
PAF000789058
PAF000789072
PAF000789093
PAF000789094
PAF000789138
PAF000789834
PAF000790316
PAF000790420
PAF000790663
PAF000790669
PAF000790678
PAF000792270
PAF000792389
PAF000792401
PAF000792515
PAF000792544
PAF000792593
PAF000792614
PAF000792623
PAF000792627
PAF000792665
PAF000792683
PAF000792688
PAF000792717
PAF000793033
PAF000793078
PAF000797046
PAF000797137
PAF000797899
PAF000798104
PAF000798829
PAF000798850
PAF000799492
PAF000799497
PAF000799563
PAF000801154
PAF000801350
PAF000801413
PAF000801432
PAF000801525
PAF000802297
PAF000802581
PAF000802592
PAF000802594
PAF000802598
PAF000802610
PAF000802683
PAF000802692
PAF000802706
PAF000802724
PAF000803598
PAF000803999
PAF000804012
PAF000804175
PAF000804201
PAF000804363
PAF000804383
PAF000804445
PAF000804627
PAF000804817
PAF000804860
PAF000805120
PAF000805189
PAF000805457
PAF000805716
PAF000805719
PAF000807460
PAF000808332
PAF000808519
PAF000808705
PAF000808757
PAF000808760
PAF000808769
PAF000808772
PAF000808905
PAF000808940
PAF000809803
PAF000809863
PAF000809895
PAF000809906
PAF000810222
PAF000812490
PAF000813534
PAF000813949
PAF000813967
PAF000814039
PAF000814144
PAF000814180
PAF000814350
PAF000814605
PAF000814649
PAF000814657
PAF000814664
PAF000814668
PAF000814669
PAF000814950
PAF000815353
PAF000815411
PAF000815935
PAF000817832
PAF000817922
PAF000818211
PAF000818233
PAF000818380
PAF000818525
PAF000819471
PAF000819540
PAF000819542
PAF000819578
PAF000819598
PAF000819600
PAF000819615
PAF000819618
PAF000819626
PAF000819635
PAF000819637
PAF000819909
PAF000819969
PAF000820006
PAF000820007
PAF000820017
PAF000820050
PAF000820100
PAF000820202
PAF000820492
PAF000820496
PAF000820548
PAF000820867
PAF000820995
PAF000821045
PAF000821196
PAF000821197
PAF000821202
PAF000821264
PAF000821283
PAF000821296
PAF000821379
PAF000821420
PAF000821621
PAF000821641
PAF000821650
PAF000821653
PAF000821685
PAF000821719
PAF000821727
PAF000821795
PAF000822011
PAF000823155
PAF000823214
PAF000823246
PAF000823254
PAF000823255
PAF000823684
PAF000823700
PAF000824229
PAF000824251
PAF000824534
PAF000824697
PAF000824981
PAF000824982
PAF000825008
PAF000825013
PAF000825033
PAF000825034
PAF000825055
PAF000825271
PAF000825274
PAF000825296
PAF000825414
PAF000826612
PAF000826883
PAF000827036
PAF000827062
PAF000827067
PAF000827080
PAF000827101
PAF000827140
PAF000827184
PAF000827190
PAF000828553
PAF000828566
PAF000828826
PAF000829215
PAF000829514
PAF000830026
PAF000830489
PAF000830617
PAF000830658
PAF000830672
PAF000830775
PAF000830777
PAF000830816
PAF000831794
PAF000831798
PAF000831799
PAF000832446
PAF000833358
PAF000833379
PAF000833423
PAF000833424
PAF000833501
PAF000833560
PAF000833561
PAF000833565
PAF000833594
PAF000833689
PAF000833958
PAF000834001
PAF000834155
PAF000834189
PAF000834193
PAF000835231
PAF000835232
PAF000835301
PAF000835657
PAF000836791
PAF000836886
PAF000836968
PAF000837681
PAF000837727
PAF000837826
PAF000837827
PAF000838594
PAF000839000
PAF000839197
PAF000839248
PAF000839627
PAF000839637
PAF000839751
PAF000839903
PAF000839910
PAF000839912
PAF000839922
PAF000839998
PAF000840171
PAF000840669
PAF000840768
PAF000840828
PAF000840837
PAF000840840
PAF000840858
PAF000840909
PAF000840914
PAF000840919
PAF000840927
PAF000841007
PAF000842349
PAF000842429
PAF000842501
PAF000842608
PAF000842633
PAF000842658
PAF000842731
PAF000842745
PAF000842761
PAF000843434
PAF000843747
PAF000843748
PAF000843749
PAF000844063
PAF000844080
PAF000844529
PAF000844748
PAF000844760
PAF000844793
PAF000844836
PAF000844899
PAF000845470
PAF000845474
PAF000845479
PAF000845654
PAF000845829
PAF000845981
PAF000846354
PAF000846529
PAF000846612
PAF000846703
PAF000846752
PAF000846753
PAF000846779
PAF000846932
PAF000846936
PAF000847578
PAF000848133
PAF000848155
PAF000848750
PAF000848778
PAF000848800
PAF000848856
PAF000850106
PAF000850118
PAF000850119
PAF000850147
PAF000850184
PAF000850189
PAF000850347
PAF000850506
PAF000850801
PAF000850866
PAF000850870
PAF000850986
PAF000850995
PAF000852288
PAF000852494
PAF000852519
PAF000852710
PAF000852713
PAF000852726
PAF000852755
PAF000852795
PAF000852800
PAF000852882
PAF000852986
PAF000852987
PAF000852996
PAF000853018
PAF000853019
PAF000853023
PAF000853030
PAF000853044
PAF000853073
PAF000853943
PAF000854460
PAF000854582
PAF000854862
PAF000855528
PAF000855563
PAF000855577
PAF000855616
PAF000855731
PAF000855778
PAF000855839
PAF000855981
PAF000856202
PAF000856494
PAF000856548
PAF000856630
PAF000857360
PAF000857383
PAF000857459
PAF000857479
PAF000857644
PAF000857672
PAF000857710
PAF000857725
PAF000857726
PAF000857745
PAF000857775
PAF000857783
PAF000857799
PAF000857811
PAF000857813
PAF000857818
PAF000857819
PAF000857823
PAF000857833
PAF000857884
PAF000857912
PAF000857941
PAF000857942
PAF000857952
PAF000857971
PAF000857979
PAF000857987
PAF000858375
PAF000858400
PAF000858498
PAF000858824
PAF000859501
PAF000859649
PAF000859660
PAF000860048
PAF000860064
PAF000860065
PAF000860093
PAF000860106
PAF000860165
PAF000860170
PAF000860171
PAF000860181
PAF000860210
PAF000860224
PAF000860238
PAF000860247
PAF000860249
PAF000860254
PAF000860280
PAF000860307
PAF000860319
PAF000860331
PAF000860360
PAF000860362
PAF000860550
PAF000860554
PAF000860557
PAF000860597
PAF000861574
PAF000861773
PAF000861997
PAF000862096
PAF000862510
PAF000862570
PAF000862585
PAF000863734
PAF000863847
PAF000863853
PAF000864686
PAF000864721
PAF000864725
PAF000866148
PAF000866523
PAF000866784
PAF000867687
PAF000867692
PAF000867992
PAF000868005
PAF000868055
PAF000868835
PAF000870275
PAF000870325
PAF000870360
PAF000870554
PAF000870761
PAF000870969
PAF000870972
PAF000871288
PAF000871637
PAF000871658
PAF000871741
PAF000871836
PAF000872042
PAF000872544
PAF000872722
PAF000872926
PAF000873108
PAF000873554
PAF000874570
PAF000874575
PAF000874576
PAF000874586
PAF000874634
PAF000874872
PAF000874976
PAF000875063
PAF000875216
PAF000875287
PAF000875526
PAF000875972
PAF000875980
PAF000876351
PAF000877472
PAF000877542
PAF000877550
PAF000877585
PAF000877596
PAF000877606
PAF000877616
PAF000877625
PAF000877632
PAF000877665
PAF000877810
PAF000877933
PAF000878000
PAF000878894
PAF000879262
PAF000880567
PAF000881181
PAF000881301
PAF000881321
PAF000881342
PAF000881425
PAF000881539
PAF000882119
PAF000882133
PAF000882238
PAF000882818
PAF000886773
PAF000887605
PAF000887675
PAF000887741
PAF000887757
PAF000891314
PAF000891515
PAF000891805
PAF000891872
PAF000892029
PAF000892030
PAF000892084
PAF000892122
PAF000892129
PAF000892214
PAF000892221
PAF000892230
PAF000892336
PAF000893121
PAF000893135
PAF000893138
PAF000893236
PAF000893347
PAF000893478
PAF000893776
PAF000894038
PAF000894560
PAF000894887
PAF000896427
PAF000896861
PAF000897049
PAF000898366
PAF000901321
PAF000901371
PAF000901388
PAF000901392
PAF000901438
PAF000901439
PAF000901467
PAF000901470
PAF000901478
PAF000901510
PAF000901515
PAF000901520
PAF000901540
PAF000901611
PAF000901618
PAF000901777
PAF000901807
PAF000901822
PAF000903100
PAF000904514
PAF000905218
PAF000905226
PAF000905249
PAF000905450
PAF000905649
PAF000905846
PAF000905875
PAF000906038
PAF000906805
PAF000908260
PAF000908597
PAF000908598
PAF000908838
PAF000909756
PAF000910889
PAF000911627
PAF000911672
PAF000911977
PAF000912054
PAF000912062
PAF000912087
PAF000912313
PAF000912555
PAF000913275
PAF000914253
PAF000914480
PAF000914854
PAF000915891
PAF000915903
PAF000916915
PAF000918223
PAF000918225
PAF000918240
PAF000918277
PAF000918398
PAF000918628
PAF000919244
PAF000919421
PAF000919451
PAF000919735
PAF000919744
PAF000919750
PAF000919768
PAF000919863
PAF000919928
PAF000919941
PAF000919953
PAF000920466
PAF000920771
PAF000920888
PAF000920926
PAF000921012
PAF000921083
PAF000921125
PAF000921166
PAF000921195
PAF000921259
PAF000921273
PAF000921662
PAF000921663
PAF000921748
PAF000922365
PAF000922368
PAF000922435
PAF000922682
PAF000922959
PAF000923589
PAF000923641
PAF000924220
PAF000925015
PAF000925584
PAF000925789
PAF000926014
PAF000926015
PAF000926029
PAF000926033
PAF000926086
PAF000926091
PAF000926407
PAF000926431
PAF000926440
PAF000926532
PAF000926543
PAF000926628
PAF000926854
PAF000926888
PAF000926895
PAF000926902
PAF000926909
PAF000926912
PAF000926922
PAF000927384
PAF000927388
PAF000927575
PAF000927596
PAF000927833
PAF000928551
PAF000928756
PAF000929289
PAF000929406
PAF000929423
PAF000929436
