  SORT FIELDS=(1,9,CH,A)                                                00010000
  INCLUDE COND=((150,2,CH,NE,C'  '))                                    00020000
  OUTREC FIELDS=(1,9,23,26,49,1,150,2,189,4,211,2,249,4,271,2)          00030000
