     DELETE (PPSP.PAYMERG) PURGE                                        00010000
     DELETE (PPSP.PPP4601) PURGE                                        00020000
     DELETE (PPSP.PPP4801) PURGE                                        00030000
     DELETE (PPSP.PPP4802) PURGE                                        00040000
     DELETE (PPSP.PPP4803) PURGE                                        00050000
     DELETE (PPSP.PPP4804) PURGE                                        00060000
     DELETE (PPSP.PPP480.INDEX) PURGE                                   00070000
     DELETE (PPSP.PPL137CR) PURGE                                       00080000
     DELETE (PPSP.PPP500CR) PURGE                                       00090000
     DELETE (PPSP.PPP520CR) PURGE                                       00100000
     DELETE (PPSP.PPP530CR) PURGE                                       00110000
     DELETE (PPSP.PPP535CR) PURGE                                       00120000
     DELETE (PPSP.UUTCCR) PURGE                                         00130000
     DELETE (PPSP.PPP711CR) PURGE                                       00140000
     DELETE (PPSP.PPL712CR) PURGE                                       00150000
     DELETE (PPSP.PPP712CR) PURGE                                       00160000
     DELETE (PPSP.PPP713CR) PURGE                                       00170000
     DELETE (PPSP.PPL534CR) PURGE                                       00180000
     DELETE (PPSP.PPP718CR) PURGE                                       00190000
     DELETE (PPSP.PPI730CR) PURGE                                       00200000
     DELETE (PPSP.PPI740CR) PURGE                                       00210000
     DELETE (PPSP.PPI750CR) PURGE                                       00220000
     DELETE (PPSP.PPP700CR) PURGE                                       00230000
     DELETE (PPSP.PPP960CR) PURGE                                       00240000
     DELETE (PPSP.PPP980CR) PURGE                                       00250000
     DELETE (PPSP.PPP710CR) PURGE                                       00260000
     DELETE (PPSP.PPP560CR) PURGE                                       00270000
     DELETE (PPSP.PPP565CR) PURGE                                       00280000
     DELETE (PPSP.PPP580CR) PURGE                                       00290000
     DELETE (PPSP.PPP49ACR) PURGE                                       00292000
     DELETE (PPSP.PPP49BCR) PURGE                                       00293000
     DELETE (PPSP.PPP49CCR) PURGE                                       00294000
     DELETE (PPSP.PPP49DCR) PURGE                                       00295000
     DELETE (PPSP.PPP460CR) PURGE                                       00296000
