        SORT FIELDS=COPY                                                00035332
        OMIT    COND=((91,7,ZD,GT,98,7,ZD))                             00035432
        OUTREC FIELDS=(1,160)                                           00035532
