        SORT FIELDS=COPY                                                00030832
        INCLUDE COND=((91,7,ZD,EQ,98,7,ZD))                             00030932
        OUTREC FIELDS=(1,140,C'05NO RATE CHANGE    ')                   00031032
