        SORT FIELDS=COPY
        OMIT    COND=((75,5,CH,GE,C'63000',AND,
                       75,5,CH,LE,C'63999'),OR,
                      (75,5,CH,GE,C'40000',AND,
                       75,5,CH,LE,C'49999'),OR,
                      (75,5,CH,GE,C'50000',AND,
                       75,5,CH,LE,C'59999'),OR,
                      (75,5,CH,EQ,C'60120'))
        OUTREC FIELDS=(1,160)
