        SORT FIELDS=COPY                                                00032332
        OMIT    COND=((91,7,ZD,EQ,98,7,ZD))                             00032432
        OUTREC FIELDS=(1,160)                                           00032532
