* SIM      TYPE=APPL,ARCB1DSN=PPSP.ARCHIVE.BKUP,MAXCARDS=9999,          00001006
  DUMP     TYPE=APPL,ARCB1DSN=PPSP.ARCHIVE.BKUP,MAXCARDS=9999,          00001106
           MAXFILE=4095,ENQERR=NO,PRINT=ABR,SELTERR=NO,SAMEDATE=YES,    00001206
           ICFCORE=1048576                                              00001306
  SELECT   CATDSN=PPSP.LOADLIB                                          00032001
  SELECT   CATDSN=PPSP.ONLINE.LOADLIB                                   00033001
  SELECT   CATDSN=PPSP.MAPLIB                                           00034001
  SELECT   CATDSN=PPSP.SOURCE.COBOL                                     00035001
  SELECT   CATDSN=PPSP.ONLINE.COBOL                                     00036001
  SELECT   CATDSN=DBP1.PPPPC1.DBRMLIB                                   00036101
  SELECT   CATDSN=DBP1.PPPPC1.DCLLIB                                    00036201
  SELECT   CATDSN=DBP1.PPPPC1.DDLLIB                                    00036301
  SELECT   CATDSN=PPSP.DMGR.**                                          00036401
  SELECT   CATDSN=PPSP.JCL.CNTL                                         00036501
  SELECT   CATDSN=PPSP.PARMLIB                                          00036601
  SELECT   CATDSN=PPSP.CNTL                                             00036701
  SELECT   CATDSN=PPSP.COPYLIB                                          00036801
  SELECT   CATDSN=PPSP.T.CLIST                                          00036901
  SELECT   CATDSN=PPSP.DOC.**                                           00037001
  SELECT   CATDSN=PPSP.FOCUS.**                                         00038001
  SELECT   CATDSN=APCP.PROCLIB                                          00039001
