    SORT   FIELDS=COPY                                                  00700200
          INCLUDE COND=(01,3,CH,EQ,C'PCR',OR,                           00700300
                        124,2,CH,EQ,C'06')                              00700400
