    MERGE  FIELDS=COPY                                                  00010003
           OUTFIL OUTREC=(1:1,94,                                       00020003
                          95:26X)                                       00030003
           END                                                          00040003
