     DELETE (PPSP.PPI739.UPDHIS) PURGE                                  00010000
     DELETE (PPSP.PPI7391) PURGE                                        00030000
     DELETE (PPSP.PPI7392) PURGE                                        00040000
     DELETE (PPSP.PPI7393) PURGE                                        00050000
     DELETE (PPSP.PPI7394) PURGE                                        00060000
