     DELETE (PPSP.PPI7301) PURGE                                        00010000
     DELETE (PPSP.PPI7302) PURGE                                        00020000
     DELETE (PPSP.PPI7303) PURGE                                        00030000
     DELETE (PPSP.PPI7304) PURGE                                        00040000
     DELETE (PPSP.PPI730CR) PURGE                                       00050000
     DELETE (PPSP.FIDEXT) PURGE                                         00060000
     DELETE (PPSP.TRANSFIL) PURGE                                       00070000
