          DELETE (PPSP.IDCHANGE) PURGE                                  00010001
          DELETE (PPSP.PPL1381) PURGE                                   00020001
          DELETE (PPSP.PPL138CR) PURGE                                  00030001
