          DELETE (PPSP.PAYTRANS.PPL334) PURGE                           00010001
          DELETE (PPSP.PAYTRANS.PPL336) PURGE                           00011002
          DELETE (PPSP.PPL3341) PURGE                                   00020001
          DELETE (PPSP.PPL334CR) PURGE                                  00030001
