     DELETE (PPSP.PXT.PPL703CR) PURGE                                   00010000
     DELETE (PPSP.PXT.XEMX) PURGE                                       00020000
     DELETE (PPSP.PXT.XAPX) PURGE                                       00030000
     DELETE (PPSP.PXT.XDSX) PURGE                                       00040000
     DELETE (PPSP.PXT.XBNX) PURGE                                       00050000
