          DELETE (PPSP.FINMGR.PROD.ORG.EXTRACT.TEMP.PASS1) PURGE        00010000
          DELETE (PPSP.PPL802CR.PASS1) PURGE                            00020000
          DELETE (PPSP.PPL8021.PASS1) PURGE                             00021000
