     DELETE (PPSP.OUTACT) PURGE                                         00001400
     DELETE (PPSP.PPP0501) PURGE                                        00001600
     DELETE (PPSP.PPP050CR) PURGE                                       00001700
