     DELETE (PPSP.AHNEW) PURGE                                          00001400
     DELETE (PPSP.PPP080.ERROR) PURGE                                   00001501
     DELETE (PPSP.PPP0801) PURGE                                        00001600
     DELETE (PPSP.PPP080CR) PURGE                                       00001700
