  SORT FIELDS=(1,9,CH,A,10,25,CH,D)                                     00010001
  INCLUDE COND=((40,4,CH,EQ,C'0111'))                                   00020001
  OUTREC FIELDS=(1,252,48X)                                             00030001
