 DELETE -                                                               00010000
       PPSP.EDBV.ORIG -                                                 00020002
       PURGE -                                                          00030000
       ERASE                                                            00040003
