     DELETE (PPSP.PPP1291) PURGE                                        00001000
     DELETE (PPSP.PPP1292) PURGE                                        00001100
     DELETE (PPSP.SCNDSORT) PURGE                                       00001700
