     DELETE (PPSP.PPP3601) PURGE                                        00010000
     DELETE (PPSP.PPP3602) PURGE                                        00011000
     DELETE (PPSP.PPP360CR) PURGE                                       00020000
