    SORT   FIELDS=COPY                                                  00700200
           OMIT   COND=((55,05,CH,GT,C'62999',AND,                      00700300
                         55,05,CH,LT,C'64000'),AND,                     00700400
                        (44,04,CH,LT,C'0800',OR,                        00700500
                         44,04,CH,GT,C'3999'),AND,                      00700600
                        (60,01,CH,GT,C'1'))                             00700700
           END                                                          00700800
