     DELETE (PPSP.PPP5901) PURGE                                        00020000
     DELETE (PPSP.PPP5902) PURGE                                        00030000
     DELETE (PPSP.PPP590CR) PURGE                                       00031200
