     DELETE (PPSP.EMPF1) PURGE                                          01130000
     DELETE (PPSP.PPP6502) PURGE                                        01140001
     DELETE (PPSP.PPP6504) PURGE                                        01160001
     DELETE (PPSP.PPP65ERR) PURGE                                       01169000
     DELETE (PPSP.PPP650CR) PURGE                                       01169100
