PPP600-B000000183
PPP600-B000008636
PPP600-B000008795
PPP600-B000011357
PPP600-B000013802
PPP600-B000014322
PPP600-B000016235
PPP600-B000018765
PPP600-B000020188
PPP600-B000025065
PPP600-B000026250
PPP600-B000027559
PPP600-B000027612
PPP600-B000029774
PPP600-B000036471
PPP600-B000038590
PPP600-B000038600
PPP600-B000038608
PPP600-B000043382
PPP600-B000047236
PPP600-B000047386
PPP600-B000047678
PPP600-B000047816
PPP600-B000050628
PPP600-B000050740
PPP600-B000050945
PPP600-B000114920
PPP600-B000117356
PPP600-B000118820
PPP600-B000124115
PPP600-B000124210
PPP600-B000124774
PPP600-B000127171
PPP600-B000128032
PPP600-B000133268
PPP600-B000138967
PPP600-B000155697
PPP600-B000155741
PPP600-B000156066
PPP600-B000162990
PPP600-B000173893
PPP600-B000173895
PPP600-B000176645
PPP600-B000176898
PPP600-B000178958
PPP600-B000185562
PPP600-B000186212
PPP600-B000189932
PPP600-B000193502
PPP600-B000194499
PPP600-B000195143
PPP600-B000196482
PPP600-B000197620
PPP600-B000200046
PPP600-B000202046
PPP600-B000212958
PPP600-B000221221
PPP600-B000232602
PPP600-B000233106
PPP600-B000238817
PPP600-B000238907
PPP600-B000239774
PPP600-B000242378
PPP600-B000242782
PPP600-B000243874
PPP600-B000251605
PPP600-B000259195
PPP600-B000259404
PPP600-B000272997
PPP600-B000274282
PPP600-B000286339
PPP600-B000286836
PPP600-B000288657
PPP600-B000292576
PPP600-B000292743
PPP600-B000293333
PPP600-B000294472
PPP600-B000300000
PPP600-B000305334
PPP600-B000309634
PPP600-B000309683
PPP600-B000322844
PPP600-B000332280
PPP600-B000343356
PPP600-B000344949
PPP600-B000364580
PPP600-B000364696
PPP600-B000369765
PPP600-B000379395
PPP600-B000386626
PPP600-B000392297
PPP600-B000406591
PPP600-B000406597
PPP600-B000410166
PPP600-B000411913
PPP600-B000424370
PPP600-B000427798
PPP600-B000438080
PPP600-B000445639
PPP600-B000454150
PPP600-B000464840
PPP600-B000465764
PPP600-B000467948
PPP600-B000468812
PPP600-B000469942
PPP600-B000474803
PPP600-B000489743
PPP600-B000489786
PPP600-B000493730
PPP600-B000499691
PPP600-B000502963
PPP600-B000503025
PPP600-B000503820
PPP600-B000504489
PPP600-B000506687
PPP600-B000511839
PPP600-B000517024
PPP600-B000517925
PPP600-B000519048
PPP600-B000522592
PPP600-B000527652
PPP600-B000529983
PPP600-B000551417
PPP600-B000556205
PPP600-B000562928
PPP600-B000563045
PPP600-B000563257
PPP600-B000570473
PPP600-B000581172
PPP600-B000581561
PPP600-B000586489
PPP600-B000586611
PPP600-B000589782
PPP600-B000589794
PPP600-B000592937
PPP600-B000617877
PPP600-B000618452
PPP600-B000618693
PPP600-B000619100
PPP600-B000625167
PPP600-B000625382
PPP600-B000625457
PPP600-B000625829
PPP600-B000631813
PPP600-B000644911
PPP600-B000645092
PPP600-B000649737
PPP600-B000649830
PPP600-B000663121
PPP600-B000672130
PPP600-B000677216
PPP600-B000680209
PPP600-B000697549
PPP600-B000698549
PPP600-B000701842
PPP600-B000703756
PPP600-B000713220
PPP600-B000714266
PPP600-B000714912
PPP600-B000715003
PPP600-B000725995
PPP600-B000726005
PPP600-B000730820
PPP600-B000731107
PPP600-B000731165
PPP600-B000740225
PPP600-B000750793
PPP600-B000756530
PPP600-B000765774
PPP600-B000765780
PPP600-B000768275
PPP600-B000769241
PPP600-B000773319
PPP600-B000780869
PPP600-B000785452
PPP600-B000793026
PPP600-B000804153
PPP600-B000804885
PPP600-B000809949
PPP600-B000814657
PPP600-B000814712
PPP600-B000817783
PPP600-B000817900
PPP600-B000821353
PPP600-B000821577
PPP600-B000823068
PPP600-B000833354
PPP600-B000837767
PPP600-B000840708
PPP600-B000840828
PPP600-B000840884
PPP600-B000848749
PPP600-B000853013
PPP600-B000853868
PPP600-B000856595
PPP600-B000857227
PPP600-B000859390
PPP600-B000864684
PPP600-B000866660
PPP600-B000870310
PPP600-B000872933
PPP600-B000901407
PPP600-B000901461
PPP600-B000901774
PPP600-B000901891
PPP600-B000914480
PPP600-B000919794
PPP600-B000920826
PPP600-B000927452
PPP600-B000927669
PPP600-B000928788
