     DELETE (PPSP.ADDRESS) PURGE                                        00001000
     DELETE (PPSP.EMPLOYEE) PURGE                                       00010000
     DELETE (PPSP.PPP7111) PURGE                                        00020000
     DELETE (PPSP.PPP711CR) PURGE                                       00030000
