     DELETE (PPSP.PPP7891) PURGE                                        00010000
     DELETE (PPSP.PPP7892) PURGE                                        00020000
     DELETE (PPSP.PPP789CR) PURGE                                       00030000
