     DELETE (PPSP.PPP490.PARKING.PPP4901) PURGE                         00010000
     DELETE (PPSP.PPP490.PARKING.PPP4902) PURGE                         00011000
     DELETE (PPSP.PPP49ECR) PURGE                                       00012001
