     DELETE (PPSP.RCTRANS) PURGE                                        00010000
     DELETE (PPSP.RCABEY01) PURGE                                       00020000
     DELETE (PPSP.RCABEY02) PURGE                                       00030000
     DELETE (PPSP.RCABEY03) PURGE                                       00040000
     DELETE (PPSP.RCABEY04) PURGE                                       00050000
     DELETE (PPSP.RCABEY05) PURGE                                       00060000
     DELETE (PPSP.RCABEY06) PURGE                                       00070000
     DELETE (PPSP.RCABEY07) PURGE                                       00080000
     DELETE (PPSP.RCABEY08) PURGE                                       00090000
     DELETE (PPSP.RCABEYCR) PURGE                                       00100000
