     REPRO -                                                            00070000
       INFILE (IN70S9) -                                                00080000
       OUTFILE (OUT70S9) -                                              00090000
       REPLACE ;                                                        00100000
