     REPRO -                                                            00070000
       INFILE (IN80S5) -                                                00080001
       OUTFILE (OUT80S5) -                                              00090001
       REPLACE ;                                                        00100000
