     REPRO -                                                            00070000
       INFILE (IN80S9) -                                                00080000
       OUTFILE (OUT80S9) -                                              00090000
       REPLACE ;                                                        00100000
