     REPRO -                                                            00070000
       INFILE (IN4758) -                                                00080000
       OUTFILE (OUT4758) -                                              00090000
       REPLACE ;                                                        00100000
